{
    "2008": {
        "SC Ganguly": 107.72,
        "BB McCullum": 195.83,
        "RT Ponting": 73.58,
        "DJ Hussey": 119.48,
        "Mohammad Hafeez": 76.19,
        "R Dravid": 124.08,
        "W Jaffer": 104.55,
        "V Kohli": 98.21,
        "JH Kallis": 105.85,
        "CL White": 108.57,
        "MV Boucher": 124.31,
        "B Akhil": 143.75,
        "AA Noffke": 75,
        "P Kumar": 112,
        "Z Khan": 79.07,
        "SB Joshi": 37.5,
        "PA Patel": 95.87,
        "ML Hayden": 140,
        "MEK Hussey": 168,
        "MS Dhoni": 129.78,
        "SK Raina": 138.49,
        "JDP Oram": 138.46,
        "S Badrinath": 139.13,
        "K Goel": 96.2,
        "JR Hopes": 145.39,
        "KC Sangakkara": 154.59,
        "Yuvraj Singh": 156.54,
        "SM Katich": 133.33,
        "IK Pathan": 109.17,
        "T Kohli": 62.5,
        "YK Pathan": 171.94,
        "SR Watson": 146.58,
        "M Kaif": 100,
        "DS Lehmann": 94.74,
        "RA Jadeja": 125,
        "M Rawat": 87.18,
        "D Salunkhe": 137.5,
        "SK Warne": 116.67,
        "SK Trivedi": 41.67,
        "G Gambhir": 135.53,
        "V Sehwag": 177.29,
        "S Dhawan": 110.39,
        "L Ronchi": 100,
        "ST Jayasuriya": 154.35,
        "DJ Thornely": 72.22,
        "RV Uthappa": 109.97,
        "PR Shah": 89.47,
        "AM Nayar": 145.07,
        "SM Pollock": 126.72,
        "Harbhajan Singh": 176.47,
        "S Chanderpaul": 75.76,
        "LRPL Taylor": 175.29,
        "AC Gilchrist": 132.93,
        "Y Venugopal Rao": 132.72,
        "VVS Laxman": 115.67,
        "A Symonds": 145.05,
        "RG Sharma": 146.38,
        "SB Styris": 90.32,
        "AS Yadav": 122.5,
        "SB Bangar": 95.92,
        "WPUJC Vaas": 116.67,
        "RP Singh": 108,
        "WP Saha": 133.61,
        "LR Shukla": 128.35,
        "DPMD Jayawardene": 129.71,
        "S Sohal": 50,
        "B Lee": 121.43,
        "PP Chawla": 147.54,
        "WA Mota": 92.86,
        "Kamran Akmal": 164.1,
        "Shahid Afridi": 176.09,
        "DJ Bravo": 129.93,
        "MA Khote": 109.09,
        "A Nehra": 23.08,
        "GC Smith": 117.6,
        "Pankaj Singh": 62.5,
        "RR Sarwan": 93.59,
        "S Sreesanth": 0,
        "VRV Singh": 133.33,
        "SS Tiwary": 130,
        "DS Kulkarni": 11.76,
        "R Vinay Kumar": 89.29,
        "AB Agarkar": 110.2,
        "M Kartik": 107.14,
        "I Sharma": 100,
        "AM Rahane": 21.05,
        "Shoaib Malik": 106.12,
        "MK Tiwary": 119.54,
        "KD Karthik": 134.26,
        "R Bhatia": 121.43,
        "MF Maharoof": 158.23,
        "VY Mahesh": 53.57,
        "TM Srivastava": 80,
        "B Chipli": 66.67,
        "DW Steyn": 40,
        "DB Das": 108.42,
        "MK Pandey": 30,
        "HH Gibbs": 105.03,
        "DNT Zoysa": 122.22,
        "D Kalyankrishna": 37.5,
        "SE Marsh": 136.28,
        "SA Asnodkar": 129.05,
        "Sohail Tanvir": 116.13,
        "Salman Butt": 112.21,
        "BJ Hodge": 66.67,
        "Umar Gul": 205.26,
        "AB Dinda": 50,
        "SP Fleming": 114.62,
        "S Vidyut": 126.09,
        "JA Morkel": 143.45,
        "AB de Villiers": 95,
        "LPC Silva": 148.15,
        "DB Ravi Teja": 128.24,
        "Misbah-ul-Haq": 142.68,
        "YV Takawale": 101.45,
        "RR Raje": 88.89,
        "PJ Sangwan": 40,
        "Mohammad Asif": 50,
        "GD McGrath": 80,
        "Joginder Sharma": 145.45,
        "MS Gony": 140,
        "M Muralitharan": 0,
        "M Ntini": 57.89,
        "DT Patil": 100,
        "A Kumble": 76.47,
        "S Anirudha": 12.5,
        "MM Patel": 0,
        "CK Kapugedera": 66.67,
        "A Chopra": 76.36,
        "T Taibu": 119.23,
        "J Arunkumar": 95.83,
        "PP Ojha": 50,
        "SP Goswami": 95.35,
        "SR Tendulkar": 99.47,
        "U Kaul": 0,
        "TM Dilshan": 131.65,
        "A Mishra": 88.1,
        "AD Mascarenhas": 112.5,
        "Niraj Patel": 124.1,
        "LA Pomersbach": 150.5,
        "Iqbal Abdulla": 50,
        "Younis Khan": 42.86,
        "PM Sarvesh Kumar": 50,
        "DP Vijaykumar": 100,
        "Shoaib Akhtar": 25,
        "Abdur Razzak": 0,
        "H Das": 40,
        "DR Smith": 109.76,
        "SD Chitnis": 180,
        "CRD Fernando": 200,
        "VS Yeligati": 100,
        "L Balaji": 0,
        "A Mukund": 0,
        "RR Powar": 133.33
    },
    "2009": {
        "SC Ganguly": 100.19,
        "BB McCullum": 137.79,
        "RT Ponting": 73.58,
        "DJ Hussey": 127.13,
        "Mohammad Hafeez": 76.19,
        "R Dravid": 119.33,
        "W Jaffer": 100.78,
        "V Kohli": 104.58,
        "JH Kallis": 104.28,
        "CL White": 108.57,
        "MV Boucher": 124.17,
        "B Akhil": 131.25,
        "AA Noffke": 75,
        "P Kumar": 121.23,
        "Z Khan": 77.78,
        "SB Joshi": 37.5,
        "PA Patel": 99.55,
        "ML Hayden": 139.89,
        "MEK Hussey": 168,
        "MS Dhoni": 126.66,
        "SK Raina": 137.46,
        "JDP Oram": 99.07,
        "S Badrinath": 121.38,
        "K Goel": 91.32,
        "JR Hopes": 145.39,
        "KC Sangakkara": 120.96,
        "Yuvraj Singh": 125.79,
        "SM Katich": 126.18,
        "IK Pathan": 115.14,
        "T Kohli": 55,
        "YK Pathan": 156.4,
        "SR Watson": 146.58,
        "M Kaif": 100,
        "DS Lehmann": 94.74,
        "RA Jadeja": 111.98,
        "M Rawat": 84.75,
        "D Salunkhe": 137.5,
        "SK Warne": 100,
        "SK Trivedi": 45.16,
        "G Gambhir": 121.12,
        "V Sehwag": 161.07,
        "S Dhawan": 107.34,
        "L Ronchi": 91.89,
        "ST Jayasuriya": 136.62,
        "DJ Thornely": 72.22,
        "RV Uthappa": 105.77,
        "PR Shah": 94.57,
        "AM Nayar": 134.34,
        "SM Pollock": 126.72,
        "Harbhajan Singh": 154.05,
        "S Chanderpaul": 75.76,
        "LRPL Taylor": 144.93,
        "AC Gilchrist": 140,
        "Y Venugopal Rao": 122.99,
        "VVS Laxman": 104.19,
        "A Symonds": 145.39,
        "RG Sharma": 127.88,
        "SB Styris": 95.45,
        "AS Yadav": 122.5,
        "SB Bangar": 84.48,
        "WPUJC Vaas": 130.77,
        "RP Singh": 83.33,
        "WP Saha": 144.38,
        "LR Shukla": 115.49,
        "DPMD Jayawardene": 128.39,
        "S Sohal": 108.18,
        "B Lee": 91.84,
        "PP Chawla": 121,
        "WA Mota": 73.68,
        "Kamran Akmal": 164.1,
        "Shahid Afridi": 176.09,
        "DJ Bravo": 113.79,
        "MA Khote": 109.09,
        "A Nehra": 28.57,
        "GC Smith": 109.38,
        "Pankaj Singh": 60,
        "RR Sarwan": 93.59,
        "S Sreesanth": 22.73,
        "VRV Singh": 133.33,
        "SS Tiwary": 121.88,
        "DS Kulkarni": 31.43,
        "R Vinay Kumar": 100,
        "AB Agarkar": 112.15,
        "M Kartik": 106.25,
        "I Sharma": 112.5,
        "AM Rahane": 100.68,
        "Shoaib Malik": 106.12,
        "MK Tiwary": 113,
        "KD Karthik": 130.42,
        "R Bhatia": 91.3,
        "MF Maharoof": 146,
        "VY Mahesh": 53.57,
        "TM Srivastava": 72.73,
        "B Chipli": 66.67,
        "DW Steyn": 25,
        "DB Das": 108.42,
        "MK Pandey": 131.54,
        "HH Gibbs": 106.96,
        "DNT Zoysa": 122.22,
        "D Kalyankrishna": 37.5,
        "SE Marsh": 136.28,
        "SA Asnodkar": 120.65,
        "Sohail Tanvir": 116.13,
        "Salman Butt": 112.21,
        "BJ Hodge": 112.54,
        "Umar Gul": 205.26,
        "AB Dinda": 57.14,
        "SP Fleming": 114.62,
        "S Vidyut": 126.09,
        "JA Morkel": 140.25,
        "AB de Villiers": 122,
        "LPC Silva": 148.15,
        "DB Ravi Teja": 111.54,
        "Misbah-ul-Haq": 142.68,
        "YV Takawale": 96.7,
        "RR Raje": 111.11,
        "PJ Sangwan": 53.33,
        "Mohammad Asif": 50,
        "GD McGrath": 80,
        "Joginder Sharma": 124.14,
        "MS Gony": 150,
        "M Muralitharan": 72.73,
        "M Ntini": 57.89,
        "DT Patil": 100,
        "A Kumble": 78.38,
        "S Anirudha": 12.5,
        "MM Patel": 122.22,
        "CK Kapugedera": 66.67,
        "A Chopra": 70.67,
        "T Taibu": 119.23,
        "J Arunkumar": 95.83,
        "PP Ojha": 27.27,
        "SP Goswami": 90,
        "SR Tendulkar": 109.52,
        "U Kaul": 0,
        "TM Dilshan": 119.72,
        "A Mishra": 101.61,
        "AD Mascarenhas": 102.13,
        "Niraj Patel": 97.58,
        "LA Pomersbach": 128.67,
        "Iqbal Abdulla": 50,
        "Younis Khan": 42.86,
        "PM Sarvesh Kumar": 50,
        "DP Vijaykumar": 100,
        "Shoaib Akhtar": 25,
        "Abdur Razzak": 0,
        "H Das": 40,
        "DR Smith": 148.57,
        "SD Chitnis": 126.32,
        "CRD Fernando": 200,
        "VS Yeligati": 100,
        "L Balaji": 26.67,
        "A Mukund": 0,
        "RR Powar": 118.6,
        "JP Duminy": 111.38,
        "A Flintoff": 108.77,
        "T Thushara": 25,
        "JD Ryder": 114.29,
        "KP Pietersen": 104.49,
        "T Henderson": 68.75,
        "Kamran Khan": 60,
        "RS Bopara": 111.29,
        "CH Gayle": 115.72,
        "MC Henriques": 95,
        "R Bishnoi": 111.76,
        "FH Edwards": 80,
        "KV Sharma": 33.33,
        "PC Valthaty": 50,
        "RJ Quiney": 98.1,
        "AS Raut": 120,
        "Yashpal Singh": 70.15,
        "M Manhas": 115.38,
        "AA Bilakhia": 79.76,
        "AN Ghosh": 87.5,
        "BAW Mendis": 0,
        "DL Vettori": 106.25,
        "MN van Wyk": 123.7,
        "RE van der Merwe": 120.79,
        "TL Suman": 122.8,
        "Shoaib Ahmed": 16.67,
        "GR Napier": 93.75,
        "KP Appanna": 0,
        "LA Carseldine": 114.08,
        "NV Ojha": 115.86,
        "SM Harwood": 64.29,
        "M Vijay": 86.96,
        "SB Jakati": 125,
        "DA Warner": 118.98,
        "RJ Harris": 116.67,
        "D du Preez": 76.92,
        "M Morkel": 88.89,
        "AD Mathews": 114.29,
        "J Botha": 111.9,
        "C Nanda": 0,
        "SL Malinga": 0,
        "Mashrafe Mortaza": 100,
        "A Singh": 33.33,
        "GJ Bailey": 112.5,
        "AB McDonald": 75,
        "Y Nagar": 90.91,
        "SS Shaikh": 85.71,
        "R Ashwin": 53.33,
        "Mohammad Ashraful": 16.67
    },
    "2010": {
        "SC Ganguly": 105.53,
        "BB McCullum": 127.55,
        "RT Ponting": 73.58,
        "DJ Hussey": 122.54,
        "Mohammad Hafeez": 76.19,
        "R Dravid": 121.19,
        "W Jaffer": 100.78,
        "V Kohli": 117.9,
        "JH Kallis": 107.4,
        "CL White": 117.39,
        "MV Boucher": 124.36,
        "B Akhil": 131.25,
        "AA Noffke": 75,
        "P Kumar": 117.53,
        "Z Khan": 98.51,
        "SB Joshi": 37.5,
        "PA Patel": 97.54,
        "ML Hayden": 131.94,
        "MEK Hussey": 142.36,
        "MS Dhoni": 128.48,
        "SK Raina": 137.07,
        "JDP Oram": 99.07,
        "S Badrinath": 118.08,
        "K Goel": 91.21,
        "JR Hopes": 145.39,
        "KC Sangakkara": 126.28,
        "Yuvraj Singh": 125.77,
        "SM Katich": 126.18,
        "IK Pathan": 127.75,
        "T Kohli": 55,
        "YK Pathan": 157.1,
        "SR Watson": 149.66,
        "M Kaif": 98.55,
        "DS Lehmann": 94.74,
        "RA Jadeja": 111.98,
        "M Rawat": 84.75,
        "D Salunkhe": 137.5,
        "SK Warne": 94.47,
        "SK Trivedi": 73.91,
        "G Gambhir": 121.89,
        "V Sehwag": 159.47,
        "S Dhawan": 106.93,
        "L Ronchi": 91.89,
        "ST Jayasuriya": 134.03,
        "DJ Thornely": 72.22,
        "RV Uthappa": 125.58,
        "PR Shah": 94.57,
        "AM Nayar": 131.32,
        "SM Pollock": 126.72,
        "Harbhajan Singh": 158.7,
        "S Chanderpaul": 75.76,
        "LRPL Taylor": 138.61,
        "AC Gilchrist": 141.04,
        "Y Venugopal Rao": 117.68,
        "VVS Laxman": 103.93,
        "A Symonds": 131.5,
        "RG Sharma": 128.71,
        "SB Styris": 95.45,
        "AS Yadav": 122.5,
        "SB Bangar": 84.48,
        "WPUJC Vaas": 110.96,
        "RP Singh": 70.97,
        "WP Saha": 139.91,
        "LR Shukla": 117.5,
        "DPMD Jayawardene": 135.53,
        "S Sohal": 108.18,
        "B Lee": 93.33,
        "PP Chawla": 112.27,
        "WA Mota": 73.68,
        "Kamran Akmal": 164.1,
        "Shahid Afridi": 176.09,
        "DJ Bravo": 113.97,
        "MA Khote": 109.09,
        "A Nehra": 79.41,
        "GC Smith": 109.42,
        "Pankaj Singh": 58.33,
        "RR Sarwan": 93.59,
        "S Sreesanth": 72.73,
        "VRV Singh": 133.33,
        "SS Tiwary": 130.48,
        "DS Kulkarni": 31.43,
        "R Vinay Kumar": 92.52,
        "AB Agarkar": 116.79,
        "M Kartik": 104.29,
        "I Sharma": 80.49,
        "AM Rahane": 100.68,
        "Shoaib Malik": 106.12,
        "MK Tiwary": 119.86,
        "KD Karthik": 123.87,
        "R Bhatia": 104.76,
        "MF Maharoof": 142.74,
        "VY Mahesh": 53.57,
        "TM Srivastava": 72.73,
        "B Chipli": 66.67,
        "DW Steyn": 60,
        "DB Das": 108.42,
        "MK Pandey": 115.7,
        "HH Gibbs": 107.91,
        "DNT Zoysa": 122.22,
        "D Kalyankrishna": 37.5,
        "SE Marsh": 134.09,
        "SA Asnodkar": 120.7,
        "Sohail Tanvir": 116.13,
        "Salman Butt": 112.21,
        "BJ Hodge": 110.7,
        "Umar Gul": 205.26,
        "AB Dinda": 50,
        "SP Fleming": 114.62,
        "S Vidyut": 126.09,
        "JA Morkel": 142.82,
        "AB de Villiers": 115.29,
        "LPC Silva": 148.15,
        "DB Ravi Teja": 111.54,
        "Misbah-ul-Haq": 142.68,
        "YV Takawale": 96.7,
        "RR Raje": 111.11,
        "PJ Sangwan": 60,
        "Mohammad Asif": 50,
        "GD McGrath": 80,
        "Joginder Sharma": 124.14,
        "MS Gony": 128.21,
        "M Muralitharan": 69.23,
        "M Ntini": 57.89,
        "DT Patil": 100,
        "A Kumble": 71.43,
        "S Anirudha": 114.81,
        "MM Patel": 115.63,
        "CK Kapugedera": 66.67,
        "A Chopra": 70.67,
        "T Taibu": 119.23,
        "J Arunkumar": 95.83,
        "PP Ojha": 31.58,
        "SP Goswami": 89.38,
        "SR Tendulkar": 117.82,
        "U Kaul": 0,
        "TM Dilshan": 115.27,
        "A Mishra": 87.93,
        "AD Mascarenhas": 103.45,
        "Niraj Patel": 97.58,
        "LA Pomersbach": 128.67,
        "Iqbal Abdulla": 33.33,
        "Younis Khan": 42.86,
        "PM Sarvesh Kumar": 50,
        "DP Vijaykumar": 100,
        "Shoaib Akhtar": 25,
        "Abdur Razzak": 0,
        "H Das": 40,
        "DR Smith": 141,
        "SD Chitnis": 126.32,
        "CRD Fernando": 133.33,
        "VS Yeligati": 100,
        "L Balaji": 62.86,
        "A Mukund": 0,
        "RR Powar": 109.8,
        "JP Duminy": 113.03,
        "A Flintoff": 108.77,
        "T Thushara": 63.16,
        "JD Ryder": 114.29,
        "KP Pietersen": 132.66,
        "T Henderson": 68.75,
        "Kamran Khan": 60,
        "RS Bopara": 111.24,
        "CH Gayle": 133.71,
        "MC Henriques": 108.89,
        "R Bishnoi": 111.76,
        "FH Edwards": 80,
        "KV Sharma": 33.33,
        "PC Valthaty": 50,
        "RJ Quiney": 98.1,
        "AS Raut": 118.58,
        "Yashpal Singh": 70.15,
        "M Manhas": 107.41,
        "AA Bilakhia": 78.41,
        "AN Ghosh": 87.5,
        "BAW Mendis": 50,
        "DL Vettori": 111.67,
        "MN van Wyk": 123.7,
        "RE van der Merwe": 119.42,
        "TL Suman": 119.04,
        "Shoaib Ahmed": 16.67,
        "GR Napier": 93.75,
        "KP Appanna": 50,
        "LA Carseldine": 114.08,
        "NV Ojha": 124.15,
        "SM Harwood": 64.29,
        "M Vijay": 138.5,
        "SB Jakati": 125,
        "DA Warner": 134.04,
        "RJ Harris": 115.79,
        "D du Preez": 76.92,
        "M Morkel": 68,
        "AD Mathews": 118.01,
        "J Botha": 111.9,
        "C Nanda": 0,
        "SL Malinga": 50,
        "Mashrafe Mortaza": 100,
        "A Singh": 33.33,
        "GJ Bailey": 94.03,
        "AB McDonald": 117.24,
        "Y Nagar": 72.41,
        "SS Shaikh": 85.71,
        "R Ashwin": 69.09,
        "Mohammad Ashraful": 16.67,
        "CA Pujara": 102.52,
        "OA Shah": 119.79,
        "Anirudh Singh": 91.3,
        "Jaskaran Singh": 72.73,
        "AP Tare": 121.95,
        "AT Rayudu": 137.98,
        "R Sathish": 114.29,
        "R McLaren": 92.96,
        "AA Jhunjhunwala": 106.4,
        "P Dogra": 99.07,
        "A Uniyal": 57.14,
        "MS Bisla": 115.34,
        "YA Abdulla": 0,
        "EJG Morgan": 112.9,
        "JM Kemp": 104,
        "S Tyagi": 75,
        "RS Gavaskar": 25,
        "SE Bond": 50,
        "KA Pollard": 179.61,
        "S Ladda": 0,
        "DP Nannes": 30.77,
        "MJ Lumb": 141.84,
        "DR Martyn": 73.08,
        "S Narwal": 107.69,
        "AB Barath": 97.67,
        "Bipul Sharma": 128.57,
        "FY Fazal": 102.5,
        "AC Voges": 126.57,
        "MD Mishra": 111.41,
        "UT Yadav": 75,
        "J Theron": 33.33,
        "SJ Srivastava": 50,
        "R Sharma": 111.54,
        "Mandeep Singh": 36.36,
        "KM Jadhav": 126.67,
        "SW Tait": 92.31,
        "KB Arun Karthik": 60,
        "KAJ Roach": 111.11,
        "PD Collingwood": 127.67,
        "CK Langeveldt": 0,
        "VS Malik": 120,
        "A Mithun": 125,
        "AP Dole": 147.83,
        "AN Ahmed": 50,
        "RS Sodhi": 200,
        "DE Bollinger": 105.88,
        "S Sriram": 87.1,
        "B Sumanth": 92.11,
        "C Madan": 71.43,
        "AG Paunikar": 0,
        "MR Marsh": 90.32,
        "AJ Finch": 100,
        "STR Binny": 160,
        "Harmeet Singh": 0
    },
    "2011": {
        "SC Ganguly": 104.14,
        "BB McCullum": 125.5,
        "RT Ponting": 73.58,
        "DJ Hussey": 119.29,
        "Mohammad Hafeez": 76.19,
        "R Dravid": 116.97,
        "W Jaffer": 100.78,
        "V Kohli": 117.84,
        "JH Kallis": 108.06,
        "CL White": 107.69,
        "MV Boucher": 123.9,
        "B Akhil": 133.33,
        "AA Noffke": 75,
        "P Kumar": 111.23,
        "Z Khan": 95.6,
        "SB Joshi": 37.5,
        "PA Patel": 100,
        "ML Hayden": 131.94,
        "MEK Hussey": 122.93,
        "MS Dhoni": 135.59,
        "SK Raina": 135.49,
        "JDP Oram": 96.36,
        "S Badrinath": 120.02,
        "K Goel": 91.21,
        "JR Hopes": 132.8,
        "KC Sangakkara": 124.61,
        "Yuvraj Singh": 126.25,
        "SM Katich": 126.18,
        "IK Pathan": 121.84,
        "T Kohli": 55,
        "YK Pathan": 152.56,
        "SR Watson": 142.01,
        "M Kaif": 101.24,
        "DS Lehmann": 94.74,
        "RA Jadeja": 115.37,
        "M Rawat": 84.75,
        "D Salunkhe": 137.5,
        "SK Warne": 90.41,
        "SK Trivedi": 70.83,
        "G Gambhir": 119.72,
        "V Sehwag": 163.02,
        "S Dhawan": 114.37,
        "L Ronchi": 91.89,
        "ST Jayasuriya": 134.03,
        "DJ Thornely": 72.22,
        "RV Uthappa": 124.92,
        "PR Shah": 94.85,
        "AM Nayar": 124.82,
        "SM Pollock": 126.72,
        "Harbhajan Singh": 151.89,
        "S Chanderpaul": 75.76,
        "LRPL Taylor": 131.45,
        "AC Gilchrist": 136.54,
        "Y Venugopal Rao": 116.54,
        "VVS Laxman": 104.06,
        "A Symonds": 124.71,
        "RG Sharma": 127.12,
        "SB Styris": 97.76,
        "AS Yadav": 122.5,
        "SB Bangar": 84.48,
        "WPUJC Vaas": 110.96,
        "RP Singh": 69.7,
        "WP Saha": 130.71,
        "LR Shukla": 118.4,
        "DPMD Jayawardene": 127.74,
        "S Sohal": 118.33,
        "B Lee": 88.41,
        "PP Chawla": 105.96,
        "WA Mota": 73.68,
        "Kamran Akmal": 164.1,
        "Shahid Afridi": 176.09,
        "DJ Bravo": 114.99,
        "MA Khote": 109.09,
        "A Nehra": 79.41,
        "GC Smith": 106.95,
        "Pankaj Singh": 58.33,
        "RR Sarwan": 93.59,
        "S Sreesanth": 62.26,
        "VRV Singh": 133.33,
        "SS Tiwary": 117.92,
        "DS Kulkarni": 33.33,
        "R Vinay Kumar": 96.13,
        "AB Agarkar": 115.97,
        "M Kartik": 100,
        "I Sharma": 80.43,
        "AM Rahane": 108.94,
        "Shoaib Malik": 106.12,
        "MK Tiwary": 112.9,
        "KD Karthik": 124.28,
        "R Bhatia": 105.81,
        "MF Maharoof": 142.74,
        "VY Mahesh": 53.57,
        "TM Srivastava": 72.73,
        "B Chipli": 112.38,
        "DW Steyn": 82.26,
        "DB Das": 108.42,
        "MK Pandey": 111.74,
        "HH Gibbs": 107.91,
        "DNT Zoysa": 122.22,
        "D Kalyankrishna": 37.5,
        "SE Marsh": 138.02,
        "SA Asnodkar": 120.17,
        "Sohail Tanvir": 116.13,
        "Salman Butt": 112.21,
        "BJ Hodge": 112.74,
        "Umar Gul": 205.26,
        "AB Dinda": 30.77,
        "SP Fleming": 114.62,
        "S Vidyut": 126.09,
        "JA Morkel": 139.46,
        "AB de Villiers": 118.43,
        "LPC Silva": 148.15,
        "DB Ravi Teja": 117.82,
        "Misbah-ul-Haq": 142.68,
        "YV Takawale": 96.7,
        "RR Raje": 111.11,
        "PJ Sangwan": 60,
        "Mohammad Asif": 50,
        "GD McGrath": 80,
        "Joginder Sharma": 120,
        "MS Gony": 121.95,
        "M Muralitharan": 66.67,
        "M Ntini": 57.89,
        "DT Patil": 100,
        "A Kumble": 71.43,
        "S Anirudha": 108.57,
        "MM Patel": 112.12,
        "CK Kapugedera": 66.67,
        "A Chopra": 70.67,
        "T Taibu": 119.23,
        "J Arunkumar": 95.83,
        "PP Ojha": 31.58,
        "SP Goswami": 90.05,
        "SR Tendulkar": 114.56,
        "U Kaul": 0,
        "TM Dilshan": 117.16,
        "A Mishra": 101.19,
        "AD Mascarenhas": 103.45,
        "Niraj Patel": 97.58,
        "LA Pomersbach": 127.75,
        "Iqbal Abdulla": 106.67,
        "Younis Khan": 42.86,
        "PM Sarvesh Kumar": 50,
        "DP Vijaykumar": 100,
        "Shoaib Akhtar": 25,
        "Abdur Razzak": 0,
        "H Das": 40,
        "DR Smith": 141,
        "SD Chitnis": 117.86,
        "CRD Fernando": 133.33,
        "VS Yeligati": 100,
        "L Balaji": 70.27,
        "A Mukund": 0,
        "RR Powar": 104.69,
        "JP Duminy": 113.98,
        "A Flintoff": 108.77,
        "T Thushara": 63.16,
        "JD Ryder": 139.2,
        "KP Pietersen": 132.66,
        "T Henderson": 68.75,
        "Kamran Khan": 60,
        "RS Bopara": 111.24,
        "CH Gayle": 155.3,
        "MC Henriques": 108.89,
        "R Bishnoi": 111.76,
        "FH Edwards": 80,
        "KV Sharma": 33.33,
        "PC Valthaty": 129.2,
        "RJ Quiney": 98.1,
        "AS Raut": 112.79,
        "Yashpal Singh": 70.15,
        "M Manhas": 100.58,
        "AA Bilakhia": 78.41,
        "AN Ghosh": 87.5,
        "BAW Mendis": 50,
        "DL Vettori": 100,
        "MN van Wyk": 123.7,
        "RE van der Merwe": 115.13,
        "TL Suman": 119.41,
        "Shoaib Ahmed": 16.67,
        "GR Napier": 93.75,
        "KP Appanna": 50,
        "LA Carseldine": 114.08,
        "NV Ojha": 115.95,
        "SM Harwood": 64.29,
        "M Vijay": 131.67,
        "SB Jakati": 125,
        "DA Warner": 125.45,
        "RJ Harris": 101.04,
        "D du Preez": 76.92,
        "M Morkel": 114,
        "AD Mathews": 118.01,
        "J Botha": 114.46,
        "C Nanda": 0,
        "SL Malinga": 81.82,
        "Mashrafe Mortaza": 100,
        "A Singh": 28.57,
        "GJ Bailey": 94.03,
        "AB McDonald": 116.92,
        "Y Nagar": 96.35,
        "SS Shaikh": 85.71,
        "R Ashwin": 65.57,
        "Mohammad Ashraful": 16.67,
        "CA Pujara": 103.31,
        "OA Shah": 125.89,
        "Anirudh Singh": 91.3,
        "Jaskaran Singh": 72.73,
        "AP Tare": 121.95,
        "AT Rayudu": 122.51,
        "R Sathish": 103.01,
        "R McLaren": 90.7,
        "AA Jhunjhunwala": 101.05,
        "P Dogra": 99.07,
        "A Uniyal": 57.14,
        "MS Bisla": 103.94,
        "YA Abdulla": 0,
        "EJG Morgan": 111.69,
        "JM Kemp": 104,
        "S Tyagi": 75,
        "RS Gavaskar": 25,
        "SE Bond": 50,
        "KA Pollard": 143,
        "S Ladda": 0,
        "DP Nannes": 30.77,
        "MJ Lumb": 140.4,
        "DR Martyn": 73.08,
        "S Narwal": 107.69,
        "AB Barath": 97.67,
        "Bipul Sharma": 128,
        "FY Fazal": 102.23,
        "AC Voges": 126.57,
        "MD Mishra": 111.48,
        "UT Yadav": 40,
        "J Theron": 33.33,
        "SJ Srivastava": 100,
        "R Sharma": 108.16,
        "Mandeep Singh": 96.23,
        "KM Jadhav": 113.25,
        "SW Tait": 95.65,
        "KB Arun Karthik": 76.92,
        "KAJ Roach": 111.11,
        "PD Collingwood": 127.67,
        "CK Langeveldt": 88.89,
        "VS Malik": 120,
        "A Mithun": 133.33,
        "AP Dole": 147.83,
        "AN Ahmed": 104.76,
        "RS Sodhi": 200,
        "DE Bollinger": 100,
        "S Sriram": 81.58,
        "B Sumanth": 92.11,
        "C Madan": 71.43,
        "AG Paunikar": 80.33,
        "MR Marsh": 96.3,
        "AJ Finch": 94.44,
        "STR Binny": 125,
        "Harmeet Singh": 0,
        "IR Jaggi": 73.68,
        "DT Christian": 118.01,
        "RV Gomez": 88.46,
        "MA Agarwal": 109.3,
        "AUK Pathan": 183.33,
        "UBT Chand": 16.67,
        "DJ Jacobs": 101.1,
        "Sunny Singh": 138.71,
        "NJ Rimmington": 100,
        "AL Menaria": 113.92,
        "WD Parnell": 88.1,
        "JJ van der Wath": 105.88,
        "R Ninan": 50,
        "S Aravind": 130,
        "MS Wade": 66.67,
        "TD Paine": 34.48,
        "SB Wagh": 66.67,
        "AC Thomas": 25,
        "JEC Franklin": 133.75,
        "Shakib Al Hasan": 126.09,
        "DH Yagnik": 69.57,
        "S Randiv": 50,
        "BJ Haddin": 163.64,
        "NLTC Perera": 79.31,
        "NL McCullum": 113.04,
        "JE Taylor": 75,
        "J Syed Mohammad": 115.38,
        "RN ten Doeschate": 140.79,
        "TR Birt": 127.12,
        "AG Murtaza": 40,
        "Harpreet Singh": 70,
        "M Klinger": 93.59,
        "AC Blizzard": 136.36,
        "I Malhotra": 175,
        "L Ablish": 0,
        "CA Ingram": 80.77,
        "S Nadeem": 0,
        "P Parameswaran": 100,
        "CJ Ferguson": 85.71,
        "VR Aaron": 0,
        "AA Chavan": 33.33,
        "ND Doshi": 0,
        "B Kumar": 100,
        "Y Gnaneswara Rao": 105.56,
        "S Rana": 112.5,
        "BA Bhatt": 0
    },
    "2012": {
        "SC Ganguly": 101.73,
        "BB McCullum": 118.65,
        "RT Ponting": 73.58,
        "DJ Hussey": 122.14,
        "Mohammad Hafeez": 76.19,
        "R Dravid": 114.68,
        "W Jaffer": 100.78,
        "V Kohli": 115.83,
        "JH Kallis": 107.2,
        "CL White": 129.79,
        "MV Boucher": 123.9,
        "B Akhil": 133.33,
        "AA Noffke": 75,
        "P Kumar": 110.96,
        "Z Khan": 91.67,
        "SB Joshi": 37.5,
        "PA Patel": 103.17,
        "ML Hayden": 131.94,
        "MEK Hussey": 118.56,
        "MS Dhoni": 133.58,
        "SK Raina": 134.72,
        "JDP Oram": 96.36,
        "S Badrinath": 117.38,
        "K Goel": 91.21,
        "JR Hopes": 132.8,
        "KC Sangakkara": 121.76,
        "Yuvraj Singh": 126.25,
        "SM Katich": 126.18,
        "IK Pathan": 123.7,
        "T Kohli": 55,
        "YK Pathan": 144.95,
        "SR Watson": 143.42,
        "M Kaif": 100.39,
        "DS Lehmann": 94.74,
        "RA Jadeja": 117.25,
        "M Rawat": 84.75,
        "D Salunkhe": 137.5,
        "SK Warne": 90.41,
        "SK Trivedi": 72.22,
        "G Gambhir": 124.32,
        "V Sehwag": 161.15,
        "S Dhawan": 118.74,
        "L Ronchi": 91.89,
        "ST Jayasuriya": 134.03,
        "DJ Thornely": 72.22,
        "RV Uthappa": 121.68,
        "PR Shah": 94.85,
        "AM Nayar": 121.34,
        "SM Pollock": 126.72,
        "Harbhajan Singh": 146.26,
        "S Chanderpaul": 75.76,
        "LRPL Taylor": 126.41,
        "AC Gilchrist": 134.37,
        "Y Venugopal Rao": 114.25,
        "VVS Laxman": 104.06,
        "A Symonds": 124.71,
        "RG Sharma": 126.36,
        "SB Styris": 97.76,
        "AS Yadav": 122.5,
        "SB Bangar": 84.48,
        "WPUJC Vaas": 110.96,
        "RP Singh": 66.67,
        "WP Saha": 126.53,
        "LR Shukla": 120.85,
        "DPMD Jayawardene": 123.08,
        "S Sohal": 118.33,
        "B Lee": 114.44,
        "PP Chawla": 110.13,
        "WA Mota": 73.68,
        "Kamran Akmal": 164.1,
        "Shahid Afridi": 176.09,
        "DJ Bravo": 123.75,
        "MA Khote": 109.09,
        "A Nehra": 80.85,
        "GC Smith": 106.95,
        "Pankaj Singh": 58.33,
        "RR Sarwan": 93.59,
        "S Sreesanth": 62.26,
        "VRV Singh": 133.33,
        "SS Tiwary": 116.11,
        "DS Kulkarni": 52.27,
        "R Vinay Kumar": 98.64,
        "AB Agarkar": 115.97,
        "M Kartik": 104.72,
        "I Sharma": 80.43,
        "AM Rahane": 119.31,
        "Shoaib Malik": 106.12,
        "MK Tiwary": 110.24,
        "KD Karthik": 121.16,
        "R Bhatia": 108.62,
        "MF Maharoof": 142.74,
        "VY Mahesh": 53.57,
        "TM Srivastava": 72.73,
        "B Chipli": 111.39,
        "DW Steyn": 84.34,
        "DB Das": 119.9,
        "MK Pandey": 113.78,
        "HH Gibbs": 105.85,
        "DNT Zoysa": 122.22,
        "D Kalyankrishna": 37.5,
        "SE Marsh": 132.92,
        "SA Asnodkar": 120.17,
        "Sohail Tanvir": 116.13,
        "Salman Butt": 112.21,
        "BJ Hodge": 117.66,
        "Umar Gul": 205.26,
        "AB Dinda": 33.33,
        "SP Fleming": 114.62,
        "S Vidyut": 126.09,
        "JA Morkel": 140.9,
        "AB de Villiers": 126.04,
        "LPC Silva": 148.15,
        "DB Ravi Teja": 117.59,
        "Misbah-ul-Haq": 142.68,
        "YV Takawale": 96.7,
        "RR Raje": 111.11,
        "PJ Sangwan": 60,
        "Mohammad Asif": 50,
        "GD McGrath": 80,
        "Joginder Sharma": 120,
        "MS Gony": 110.2,
        "M Muralitharan": 66.67,
        "M Ntini": 57.89,
        "DT Patil": 100,
        "A Kumble": 71.43,
        "S Anirudha": 116.67,
        "MM Patel": 97.5,
        "CK Kapugedera": 66.67,
        "A Chopra": 70.67,
        "T Taibu": 119.23,
        "J Arunkumar": 95.83,
        "PP Ojha": 30.3,
        "SP Goswami": 92.69,
        "SR Tendulkar": 113.66,
        "U Kaul": 0,
        "TM Dilshan": 113.37,
        "A Mishra": 98.41,
        "AD Mascarenhas": 100,
        "Niraj Patel": 97.58,
        "LA Pomersbach": 127.75,
        "Iqbal Abdulla": 100,
        "Younis Khan": 42.86,
        "PM Sarvesh Kumar": 50,
        "DP Vijaykumar": 100,
        "Shoaib Akhtar": 25,
        "Abdur Razzak": 0,
        "H Das": 40,
        "DR Smith": 145.36,
        "SD Chitnis": 107.61,
        "CRD Fernando": 133.33,
        "VS Yeligati": 100,
        "L Balaji": 70.27,
        "A Mukund": 0,
        "RR Powar": 104.69,
        "JP Duminy": 116.57,
        "A Flintoff": 108.77,
        "T Thushara": 63.16,
        "JD Ryder": 129.61,
        "KP Pietersen": 138.43,
        "T Henderson": 68.75,
        "Kamran Khan": 60,
        "RS Bopara": 111.24,
        "CH Gayle": 155.3,
        "MC Henriques": 108.89,
        "R Bishnoi": 111.76,
        "FH Edwards": 80,
        "KV Sharma": 33.33,
        "PC Valthaty": 120.24,
        "RJ Quiney": 98.1,
        "AS Raut": 112.79,
        "Yashpal Singh": 70.15,
        "M Manhas": 105.19,
        "AA Bilakhia": 78.41,
        "AN Ghosh": 87.5,
        "BAW Mendis": 50,
        "DL Vettori": 102.54,
        "MN van Wyk": 123.7,
        "RE van der Merwe": 115.13,
        "TL Suman": 117.96,
        "Shoaib Ahmed": 16.67,
        "GR Napier": 93.75,
        "KP Appanna": 50,
        "LA Carseldine": 114.08,
        "NV Ojha": 114.56,
        "SM Harwood": 64.29,
        "M Vijay": 129.32,
        "SB Jakati": 96.43,
        "DA Warner": 132.43,
        "RJ Harris": 107.48,
        "D du Preez": 76.92,
        "M Morkel": 109.09,
        "AD Mathews": 117.13,
        "J Botha": 112.79,
        "C Nanda": 0,
        "SL Malinga": 96.97,
        "Mashrafe Mortaza": 100,
        "A Singh": 20,
        "GJ Bailey": 94.03,
        "AB McDonald": 121.78,
        "Y Nagar": 105.17,
        "SS Shaikh": 85.71,
        "R Ashwin": 76.32,
        "Mohammad Ashraful": 16.67,
        "CA Pujara": 99.43,
        "OA Shah": 126.25,
        "Anirudh Singh": 91.3,
        "Jaskaran Singh": 72.73,
        "AP Tare": 121.95,
        "AT Rayudu": 124.03,
        "R Sathish": 103.01,
        "R McLaren": 90.7,
        "AA Jhunjhunwala": 99.54,
        "P Dogra": 91.73,
        "A Uniyal": 57.14,
        "MS Bisla": 111.78,
        "YA Abdulla": 0,
        "EJG Morgan": 111.69,
        "JM Kemp": 104,
        "S Tyagi": 75,
        "RS Gavaskar": 25,
        "SE Bond": 50,
        "KA Pollard": 140.13,
        "S Ladda": 0,
        "DP Nannes": 30.77,
        "MJ Lumb": 140.4,
        "DR Martyn": 73.08,
        "S Narwal": 107.69,
        "AB Barath": 97.67,
        "Bipul Sharma": 144.44,
        "FY Fazal": 102.23,
        "AC Voges": 126.57,
        "MD Mishra": 111.27,
        "UT Yadav": 35.29,
        "J Theron": 75,
        "SJ Srivastava": 100,
        "R Sharma": 91.67,
        "Mandeep Singh": 120.15,
        "KM Jadhav": 113.25,
        "SW Tait": 95.65,
        "KB Arun Karthik": 76.92,
        "KAJ Roach": 111.11,
        "PD Collingwood": 127.67,
        "CK Langeveldt": 88.89,
        "VS Malik": 120,
        "A Mithun": 133.33,
        "AP Dole": 147.83,
        "AN Ahmed": 104.76,
        "RS Sodhi": 200,
        "DE Bollinger": 91.3,
        "S Sriram": 81.58,
        "B Sumanth": 92.11,
        "C Madan": 71.43,
        "AG Paunikar": 80.33,
        "MR Marsh": 96.3,
        "AJ Finch": 99.19,
        "STR Binny": 127.36,
        "Harmeet Singh": 187.5,
        "IR Jaggi": 71.67,
        "DT Christian": 118.37,
        "RV Gomez": 88.46,
        "MA Agarwal": 124.91,
        "AUK Pathan": 150,
        "UBT Chand": 80.85,
        "DJ Jacobs": 91.09,
        "Sunny Singh": 138.71,
        "NJ Rimmington": 100,
        "AL Menaria": 109.59,
        "WD Parnell": 78.87,
        "JJ van der Wath": 105.88,
        "R Ninan": 50,
        "S Aravind": 150,
        "MS Wade": 66.67,
        "TD Paine": 34.48,
        "SB Wagh": 66.67,
        "AC Thomas": 105.26,
        "JEC Franklin": 105.83,
        "Shakib Al Hasan": 120,
        "DH Yagnik": 110.81,
        "S Randiv": 50,
        "BJ Haddin": 163.64,
        "NLTC Perera": 65.85,
        "NL McCullum": 113.04,
        "JE Taylor": 75,
        "J Syed Mohammad": 135.71,
        "RN ten Doeschate": 131.96,
        "TR Birt": 127.12,
        "AG Murtaza": 50,
        "Harpreet Singh": 76.92,
        "M Klinger": 93.59,
        "AC Blizzard": 131.87,
        "I Malhotra": 175,
        "L Ablish": 0,
        "CA Ingram": 80.77,
        "S Nadeem": 0,
        "P Parameswaran": 33.33,
        "CJ Ferguson": 82.35,
        "VR Aaron": 12.5,
        "AA Chavan": 109.09,
        "ND Doshi": 0,
        "B Kumar": 97.62,
        "Y Gnaneswara Rao": 105.56,
        "S Rana": 112.5,
        "BA Bhatt": 85.71,
        "F du Plessis": 128.39,
        "RE Levi": 112.16,
        "GJ Maxwell": 54.55,
        "SPD Smith": 133.09,
        "MN Samuels": 100,
        "SA Yadav": 0,
        "KK Cooper": 190,
        "JP Faulkner": 100,
        "HV Patel": 88.24,
        "DAJ Bracewell": 133.33,
        "DJ Harris": 107.77,
        "Ankit Sharma": 138.46,
        "SP Narine": 112.5,
        "GB Hogg": 93.75,
        "RR Bhatkal": 0,
        "CJ McKay": 53.33,
        "N Saini": 97.9,
        "DA Miller": 128.95,
        "Azhar Mahmood": 128.28,
        "P Negi": 120,
        "RJ Peterson": 100,
        "KMDN Kulasekara": 166.67,
        "A Ashish Reddy": 116.67,
        "V Pratap Singh": 0,
        "BB Samantray": 100,
        "MJ Clarke": 102.08,
        "Gurkeerat Singh": 159.26,
        "AP Majumdar": 112.99,
        "PA Reddy": 115.87,
        "K Upadhyay": 137.5,
        "P Awana": 80,
        "AD Russell": 174.07,
        "A Chandila": 0,
        "CA Lynn": 60,
        "Sunny Gupta": 0
    },
    "2013": {
        "SC Ganguly": 101.73,
        "BB McCullum": 118.43,
        "RT Ponting": 70.54,
        "DJ Hussey": 120,
        "Mohammad Hafeez": 76.19,
        "R Dravid": 113.35,
        "W Jaffer": 100.78,
        "V Kohli": 120.78,
        "JH Kallis": 105.37,
        "CL White": 125.45,
        "MV Boucher": 123.9,
        "B Akhil": 133.33,
        "AA Noffke": 75,
        "P Kumar": 111.54,
        "Z Khan": 91.67,
        "SB Joshi": 37.5,
        "PA Patel": 105.33,
        "ML Hayden": 131.94,
        "MEK Hussey": 121.83,
        "MS Dhoni": 137.44,
        "SK Raina": 137.14,
        "JDP Oram": 96.36,
        "S Badrinath": 115.74,
        "K Goel": 91.21,
        "JR Hopes": 132.8,
        "KC Sangakkara": 118.47,
        "Yuvraj Singh": 125.77,
        "SM Katich": 126.18,
        "IK Pathan": 118.9,
        "T Kohli": 55,
        "YK Pathan": 142.92,
        "SR Watson": 141.78,
        "M Kaif": 100.39,
        "DS Lehmann": 94.74,
        "RA Jadeja": 121.43,
        "M Rawat": 78.57,
        "D Salunkhe": 137.5,
        "SK Warne": 90.41,
        "SK Trivedi": 68.85,
        "G Gambhir": 122.63,
        "V Sehwag": 154.18,
        "S Dhawan": 118.73,
        "L Ronchi": 91.89,
        "ST Jayasuriya": 134.03,
        "DJ Thornely": 72.22,
        "RV Uthappa": 119.59,
        "PR Shah": 94.85,
        "AM Nayar": 116.91,
        "SM Pollock": 126.72,
        "Harbhajan Singh": 145.21,
        "S Chanderpaul": 75.76,
        "LRPL Taylor": 122.04,
        "AC Gilchrist": 133.05,
        "Y Venugopal Rao": 114.25,
        "VVS Laxman": 104.06,
        "A Symonds": 124.71,
        "RG Sharma": 127.05,
        "SB Styris": 97.76,
        "AS Yadav": 122.5,
        "SB Bangar": 84.48,
        "WPUJC Vaas": 110.96,
        "RP Singh": 66.67,
        "WP Saha": 125.93,
        "LR Shukla": 116.88,
        "DPMD Jayawardene": 118.79,
        "S Sohal": 118.33,
        "B Lee": 121.57,
        "PP Chawla": 109.56,
        "WA Mota": 73.68,
        "Kamran Akmal": 164.1,
        "Shahid Afridi": 176.09,
        "DJ Bravo": 121.52,
        "MA Khote": 109.09,
        "A Nehra": 70.91,
        "GC Smith": 106.95,
        "Pankaj Singh": 58.33,
        "RR Sarwan": 93.59,
        "S Sreesanth": 59.65,
        "VRV Singh": 133.33,
        "SS Tiwary": 113.45,
        "DS Kulkarni": 52.27,
        "R Vinay Kumar": 108.71,
        "AB Agarkar": 111.87,
        "M Kartik": 103.67,
        "I Sharma": 80.43,
        "AM Rahane": 112.86,
        "Shoaib Malik": 106.12,
        "MK Tiwary": 109.21,
        "KD Karthik": 121.07,
        "R Bhatia": 114.21,
        "MF Maharoof": 142.74,
        "VY Mahesh": 53.57,
        "TM Srivastava": 72.73,
        "B Chipli": 109.38,
        "DW Steyn": 102.5,
        "DB Das": 113.86,
        "MK Pandey": 111.18,
        "HH Gibbs": 105.85,
        "DNT Zoysa": 122.22,
        "D Kalyankrishna": 37.5,
        "SE Marsh": 130.16,
        "SA Asnodkar": 120.17,
        "Sohail Tanvir": 116.13,
        "Salman Butt": 112.21,
        "BJ Hodge": 120.39,
        "Umar Gul": 205.26,
        "AB Dinda": 51.72,
        "SP Fleming": 114.62,
        "S Vidyut": 126.09,
        "JA Morkel": 139.86,
        "AB de Villiers": 133.04,
        "LPC Silva": 148.15,
        "DB Ravi Teja": 115.38,
        "Misbah-ul-Haq": 142.68,
        "YV Takawale": 96.7,
        "RR Raje": 111.11,
        "PJ Sangwan": 68.75,
        "Mohammad Asif": 50,
        "GD McGrath": 80,
        "Joginder Sharma": 120,
        "MS Gony": 130.26,
        "M Muralitharan": 66.67,
        "M Ntini": 57.89,
        "DT Patil": 100,
        "A Kumble": 71.43,
        "S Anirudha": 114.66,
        "MM Patel": 97.5,
        "CK Kapugedera": 66.67,
        "A Chopra": 70.67,
        "T Taibu": 119.23,
        "J Arunkumar": 95.83,
        "PP Ojha": 32.43,
        "SP Goswami": 92.69,
        "SR Tendulkar": 114.19,
        "U Kaul": 0,
        "TM Dilshan": 110.12,
        "A Mishra": 94.18,
        "AD Mascarenhas": 100,
        "Niraj Patel": 97.58,
        "LA Pomersbach": 120.32,
        "Iqbal Abdulla": 81.25,
        "Younis Khan": 42.86,
        "PM Sarvesh Kumar": 50,
        "DP Vijaykumar": 100,
        "Shoaib Akhtar": 25,
        "Abdur Razzak": 0,
        "H Das": 40,
        "DR Smith": 131.24,
        "SD Chitnis": 107.61,
        "CRD Fernando": 133.33,
        "VS Yeligati": 100,
        "L Balaji": 74.47,
        "A Mukund": 82.61,
        "RR Powar": 104.69,
        "JP Duminy": 116.57,
        "A Flintoff": 108.77,
        "T Thushara": 63.16,
        "JD Ryder": 129.61,
        "KP Pietersen": 138.43,
        "T Henderson": 68.75,
        "Kamran Khan": 60,
        "RS Bopara": 111.24,
        "CH Gayle": 153.39,
        "MC Henriques": 124.42,
        "R Bishnoi": 111.76,
        "FH Edwards": 80,
        "KV Sharma": 93.48,
        "PC Valthaty": 116.9,
        "RJ Quiney": 98.1,
        "AS Raut": 112.79,
        "Yashpal Singh": 70.15,
        "M Manhas": 104.13,
        "AA Bilakhia": 78.41,
        "AN Ghosh": 87.5,
        "BAW Mendis": 50,
        "DL Vettori": 102.54,
        "MN van Wyk": 123.7,
        "RE van der Merwe": 110.42,
        "TL Suman": 115.16,
        "Shoaib Ahmed": 16.67,
        "GR Napier": 93.75,
        "KP Appanna": 50,
        "LA Carseldine": 114.08,
        "NV Ojha": 114.27,
        "SM Harwood": 64.29,
        "M Vijay": 124.13,
        "SB Jakati": 96.43,
        "DA Warner": 129.63,
        "RJ Harris": 104.46,
        "D du Preez": 76.92,
        "M Morkel": 137.65,
        "AD Mathews": 118.61,
        "J Botha": 108.31,
        "C Nanda": 0,
        "SL Malinga": 85.88,
        "Mashrafe Mortaza": 100,
        "A Singh": 20,
        "GJ Bailey": 94.03,
        "AB McDonald": 119.42,
        "Y Nagar": 105.17,
        "SS Shaikh": 85.71,
        "R Ashwin": 73.81,
        "Mohammad Ashraful": 16.67,
        "CA Pujara": 96.72,
        "OA Shah": 124.94,
        "Anirudh Singh": 91.3,
        "Jaskaran Singh": 72.73,
        "AP Tare": 138.4,
        "AT Rayudu": 121.64,
        "R Sathish": 116.04,
        "R McLaren": 89.33,
        "AA Jhunjhunwala": 99.54,
        "P Dogra": 90.07,
        "A Uniyal": 57.14,
        "MS Bisla": 108.6,
        "YA Abdulla": 0,
        "EJG Morgan": 118.56,
        "JM Kemp": 104,
        "S Tyagi": 75,
        "RS Gavaskar": 25,
        "SE Bond": 50,
        "KA Pollard": 141.96,
        "S Ladda": 0,
        "DP Nannes": 30.77,
        "MJ Lumb": 140.4,
        "DR Martyn": 73.08,
        "S Narwal": 127.59,
        "AB Barath": 97.67,
        "Bipul Sharma": 144.44,
        "FY Fazal": 102.23,
        "AC Voges": 126.57,
        "MD Mishra": 111.27,
        "UT Yadav": 78.57,
        "J Theron": 75,
        "SJ Srivastava": 100,
        "R Sharma": 85.71,
        "Mandeep Singh": 117.94,
        "KM Jadhav": 117.14,
        "SW Tait": 88.46,
        "KB Arun Karthik": 96.23,
        "KAJ Roach": 111.11,
        "PD Collingwood": 127.67,
        "CK Langeveldt": 88.89,
        "VS Malik": 120,
        "A Mithun": 130.77,
        "AP Dole": 147.83,
        "AN Ahmed": 104.76,
        "RS Sodhi": 200,
        "DE Bollinger": 91.3,
        "S Sriram": 81.58,
        "B Sumanth": 92.11,
        "C Madan": 71.43,
        "AG Paunikar": 80.33,
        "MR Marsh": 114.74,
        "AJ Finch": 123.72,
        "STR Binny": 138.06,
        "Harmeet Singh": 150,
        "IR Jaggi": 71.67,
        "DT Christian": 114.05,
        "RV Gomez": 94.34,
        "MA Agarwal": 121.29,
        "AUK Pathan": 150,
        "UBT Chand": 93.33,
        "DJ Jacobs": 91.09,
        "Sunny Singh": 138.71,
        "NJ Rimmington": 100,
        "AL Menaria": 109.26,
        "WD Parnell": 78.21,
        "JJ van der Wath": 105.88,
        "R Ninan": 50,
        "S Aravind": 150,
        "MS Wade": 66.67,
        "TD Paine": 34.48,
        "SB Wagh": 66.67,
        "AC Thomas": 105.26,
        "JEC Franklin": 105.83,
        "Shakib Al Hasan": 120,
        "DH Yagnik": 122.06,
        "S Randiv": 50,
        "BJ Haddin": 163.64,
        "NLTC Perera": 122.43,
        "NL McCullum": 113.04,
        "JE Taylor": 75,
        "J Syed Mohammad": 107.41,
        "RN ten Doeschate": 133.13,
        "TR Birt": 127.12,
        "AG Murtaza": 71.43,
        "Harpreet Singh": 76.92,
        "M Klinger": 93.59,
        "AC Blizzard": 131.87,
        "I Malhotra": 175,
        "L Ablish": 0,
        "CA Ingram": 80.77,
        "S Nadeem": 46.67,
        "P Parameswaran": 33.33,
        "CJ Ferguson": 82.35,
        "VR Aaron": 12.5,
        "AA Chavan": 109.09,
        "ND Doshi": 0,
        "B Kumar": 81.58,
        "Y Gnaneswara Rao": 105.56,
        "S Rana": 112.5,
        "BA Bhatt": 85.71,
        "F du Plessis": 128.39,
        "RE Levi": 112.16,
        "GJ Maxwell": 110.53,
        "SPD Smith": 128.33,
        "MN Samuels": 92.96,
        "SA Yadav": 0,
        "KK Cooper": 183.33,
        "JP Faulkner": 100,
        "HV Patel": 88.24,
        "DAJ Bracewell": 133.33,
        "DJ Harris": 107.77,
        "Ankit Sharma": 138.46,
        "SP Narine": 107.14,
        "GB Hogg": 93.75,
        "RR Bhatkal": 0,
        "CJ McKay": 53.33,
        "N Saini": 97.9,
        "DA Miller": 154.95,
        "Azhar Mahmood": 126.07,
        "P Negi": 120,
        "RJ Peterson": 100,
        "KMDN Kulasekara": 166.67,
        "A Ashish Reddy": 133.33,
        "V Pratap Singh": 0,
        "BB Samantray": 107.76,
        "MJ Clarke": 102.08,
        "Gurkeerat Singh": 127.63,
        "AP Majumdar": 112.99,
        "PA Reddy": 98.2,
        "K Upadhyay": 133.33,
        "P Awana": 35.71,
        "AD Russell": 138.1,
        "A Chandila": 57.14,
        "CA Lynn": 60,
        "Sunny Gupta": 0,
        "MC Juneja": 93.28,
        "KK Nair": 75,
        "GH Vihari": 83.97,
        "MDKJ Perera": 107.69,
        "R Shukla": 50,
        "B Laughlin": 44.44,
        "AS Rajpoot": 33.33,
        "M Vohra": 137.61,
        "JD Unadkat": 100,
        "Mohammed Shami": 50,
        "BMAJ Mendis": 85.19,
        "R Rampaul": 97.44,
        "CH Morris": 82.35,
        "SV Samson": 115.08,
        "SMSM Senanayake": 58.82,
        "BJ Rohrer": 132.19,
        "KL Rahul": 125,
        "Q de Kock": 37.5,
        "R Dhawan": 100,
        "MG Johnson": 105.41,
        "LJ Wright": 168.25,
        "IC Pandey": 0,
        "CM Gautam": 118.92,
        "X Thalaivan Sargunam": 58.82,
        "DJG Sammy": 127.94,
        "KW Richardson": 94.44,
        "MM Sharma": 0,
        "UA Birla": 46.67,
        "Parvez Rasool": 55.56,
        "Sandeep Sharma": 0,
        "S Kaul": 77.78,
        "Sachin Baby": 42.86,
        "PV Tambe": 50,
        "NM Coulter-Nile": 150
    },
    "2014": {
        "SC Ganguly": 101.73,
        "BB McCullum": 118.52,
        "RT Ponting": 70.54,
        "DJ Hussey": 120.07,
        "Mohammad Hafeez": 76.19,
        "R Dravid": 113.35,
        "W Jaffer": 100.78,
        "V Kohli": 120.58,
        "JH Kallis": 105.94,
        "CL White": 125.45,
        "MV Boucher": 123.9,
        "B Akhil": 133.33,
        "AA Noffke": 75,
        "P Kumar": 111.07,
        "Z Khan": 93.04,
        "SB Joshi": 37.5,
        "PA Patel": 105.61,
        "ML Hayden": 131.94,
        "MEK Hussey": 120.63,
        "MS Dhoni": 138.31,
        "SK Raina": 137.78,
        "JDP Oram": 96.36,
        "S Badrinath": 115.74,
        "K Goel": 91.21,
        "JR Hopes": 132.8,
        "KC Sangakkara": 118.47,
        "Yuvraj Singh": 126.71,
        "SM Katich": 126.18,
        "IK Pathan": 117.46,
        "T Kohli": 55,
        "YK Pathan": 144.84,
        "SR Watson": 138.73,
        "M Kaif": 100.39,
        "DS Lehmann": 94.74,
        "RA Jadeja": 122.29,
        "M Rawat": 78.57,
        "D Salunkhe": 137.5,
        "SK Warne": 90.41,
        "SK Trivedi": 68.85,
        "G Gambhir": 121.16,
        "V Sehwag": 150.75,
        "S Dhawan": 117.82,
        "L Ronchi": 91.89,
        "ST Jayasuriya": 134.03,
        "DJ Thornely": 72.22,
        "RV Uthappa": 123.34,
        "PR Shah": 94.85,
        "AM Nayar": 114.29,
        "SM Pollock": 126.72,
        "Harbhajan Singh": 142.79,
        "S Chanderpaul": 75.76,
        "LRPL Taylor": 120.07,
        "AC Gilchrist": 133.05,
        "Y Venugopal Rao": 113.87,
        "VVS Laxman": 104.06,
        "A Symonds": 124.71,
        "RG Sharma": 127.05,
        "SB Styris": 97.76,
        "AS Yadav": 122.5,
        "SB Bangar": 84.48,
        "WPUJC Vaas": 110.96,
        "RP Singh": 66.67,
        "WP Saha": 132.67,
        "LR Shukla": 113.13,
        "DPMD Jayawardene": 118.79,
        "S Sohal": 118.33,
        "B Lee": 121.57,
        "PP Chawla": 111.92,
        "WA Mota": 73.68,
        "Kamran Akmal": 164.1,
        "Shahid Afridi": 176.09,
        "DJ Bravo": 122.07,
        "MA Khote": 109.09,
        "A Nehra": 70.91,
        "GC Smith": 106.95,
        "Pankaj Singh": 58.33,
        "RR Sarwan": 93.59,
        "S Sreesanth": 59.65,
        "VRV Singh": 133.33,
        "SS Tiwary": 113.45,
        "DS Kulkarni": 81.69,
        "R Vinay Kumar": 107.38,
        "AB Agarkar": 111.87,
        "M Kartik": 103.67,
        "I Sharma": 80.43,
        "AM Rahane": 113.05,
        "Shoaib Malik": 106.12,
        "MK Tiwary": 110.75,
        "KD Karthik": 121.6,
        "R Bhatia": 115.87,
        "MF Maharoof": 142.74,
        "VY Mahesh": 53.57,
        "TM Srivastava": 72.73,
        "B Chipli": 109.38,
        "DW Steyn": 99.32,
        "DB Das": 113.86,
        "MK Pandey": 111.99,
        "HH Gibbs": 105.85,
        "DNT Zoysa": 122.22,
        "D Kalyankrishna": 37.5,
        "SE Marsh": 130.15,
        "SA Asnodkar": 120.17,
        "Sohail Tanvir": 116.13,
        "Salman Butt": 112.21,
        "BJ Hodge": 121.42,
        "Umar Gul": 205.26,
        "AB Dinda": 45.24,
        "SP Fleming": 114.62,
        "S Vidyut": 126.09,
        "JA Morkel": 137.91,
        "AB de Villiers": 136.72,
        "LPC Silva": 148.15,
        "DB Ravi Teja": 115.38,
        "Misbah-ul-Haq": 142.68,
        "YV Takawale": 104.92,
        "RR Raje": 111.11,
        "PJ Sangwan": 68.75,
        "Mohammad Asif": 50,
        "GD McGrath": 80,
        "Joginder Sharma": 120,
        "MS Gony": 130.26,
        "M Muralitharan": 66.67,
        "M Ntini": 57.89,
        "DT Patil": 100,
        "A Kumble": 71.43,
        "S Anirudha": 112.4,
        "MM Patel": 97.5,
        "CK Kapugedera": 66.67,
        "A Chopra": 70.67,
        "T Taibu": 119.23,
        "J Arunkumar": 95.83,
        "PP Ojha": 35.56,
        "SP Goswami": 92.69,
        "SR Tendulkar": 114.19,
        "U Kaul": 0,
        "TM Dilshan": 110.12,
        "A Mishra": 93.31,
        "AD Mascarenhas": 100,
        "Niraj Patel": 97.58,
        "LA Pomersbach": 120.32,
        "Iqbal Abdulla": 81.25,
        "Younis Khan": 42.86,
        "PM Sarvesh Kumar": 50,
        "DP Vijaykumar": 100,
        "Shoaib Akhtar": 25,
        "Abdur Razzak": 0,
        "H Das": 40,
        "DR Smith": 132,
        "SD Chitnis": 107.61,
        "CRD Fernando": 133.33,
        "VS Yeligati": 100,
        "L Balaji": 72,
        "A Mukund": 82.61,
        "RR Powar": 104.69,
        "JP Duminy": 120.7,
        "A Flintoff": 108.77,
        "T Thushara": 63.16,
        "JD Ryder": 129.61,
        "KP Pietersen": 133.14,
        "T Henderson": 68.75,
        "Kamran Khan": 60,
        "RS Bopara": 111.24,
        "CH Gayle": 148.37,
        "MC Henriques": 119.89,
        "R Bishnoi": 111.76,
        "FH Edwards": 80,
        "KV Sharma": 104.92,
        "PC Valthaty": 116.9,
        "RJ Quiney": 98.1,
        "AS Raut": 112.79,
        "Yashpal Singh": 70.15,
        "M Manhas": 105.76,
        "AA Bilakhia": 78.41,
        "AN Ghosh": 87.5,
        "BAW Mendis": 50,
        "DL Vettori": 102.54,
        "MN van Wyk": 123.7,
        "RE van der Merwe": 110.42,
        "TL Suman": 115.16,
        "Shoaib Ahmed": 16.67,
        "GR Napier": 93.75,
        "KP Appanna": 50,
        "LA Carseldine": 114.08,
        "NV Ojha": 117.98,
        "SM Harwood": 64.29,
        "M Vijay": 121.6,
        "SB Jakati": 96.43,
        "DA Warner": 131.48,
        "RJ Harris": 104.46,
        "D du Preez": 76.92,
        "M Morkel": 135.96,
        "AD Mathews": 118.61,
        "J Botha": 108.31,
        "C Nanda": 0,
        "SL Malinga": 84.27,
        "Mashrafe Mortaza": 100,
        "A Singh": 20,
        "GJ Bailey": 124.51,
        "AB McDonald": 119.42,
        "Y Nagar": 105.17,
        "SS Shaikh": 85.71,
        "R Ashwin": 79.31,
        "Mohammad Ashraful": 16.67,
        "CA Pujara": 96.77,
        "OA Shah": 124.94,
        "Anirudh Singh": 91.3,
        "Jaskaran Singh": 72.73,
        "AP Tare": 131.72,
        "AT Rayudu": 121.71,
        "R Sathish": 116.04,
        "R McLaren": 89.33,
        "AA Jhunjhunwala": 99.54,
        "P Dogra": 90.07,
        "A Uniyal": 57.14,
        "MS Bisla": 107.64,
        "YA Abdulla": 0,
        "EJG Morgan": 118.56,
        "JM Kemp": 104,
        "S Tyagi": 75,
        "RS Gavaskar": 25,
        "SE Bond": 50,
        "KA Pollard": 139.62,
        "S Ladda": 0,
        "DP Nannes": 30.77,
        "MJ Lumb": 140.4,
        "DR Martyn": 73.08,
        "S Narwal": 127.59,
        "AB Barath": 97.67,
        "Bipul Sharma": 144.44,
        "FY Fazal": 102.23,
        "AC Voges": 126.57,
        "MD Mishra": 111.27,
        "UT Yadav": 76.67,
        "J Theron": 75,
        "SJ Srivastava": 100,
        "R Sharma": 85.71,
        "Mandeep Singh": 116.57,
        "KM Jadhav": 125.8,
        "SW Tait": 88.46,
        "KB Arun Karthik": 96.23,
        "KAJ Roach": 111.11,
        "PD Collingwood": 127.67,
        "CK Langeveldt": 88.89,
        "VS Malik": 100,
        "A Mithun": 130.77,
        "AP Dole": 147.83,
        "AN Ahmed": 118.18,
        "RS Sodhi": 200,
        "DE Bollinger": 91.3,
        "S Sriram": 81.58,
        "B Sumanth": 92.11,
        "C Madan": 71.43,
        "AG Paunikar": 80.33,
        "MR Marsh": 114.74,
        "AJ Finch": 120.65,
        "STR Binny": 127.55,
        "Harmeet Singh": 150,
        "IR Jaggi": 71.67,
        "DT Christian": 114.05,
        "RV Gomez": 94.34,
        "MA Agarwal": 121.78,
        "AUK Pathan": 150,
        "UBT Chand": 90,
        "DJ Jacobs": 91.09,
        "Sunny Singh": 138.71,
        "NJ Rimmington": 100,
        "AL Menaria": 109.26,
        "WD Parnell": 78.75,
        "JJ van der Wath": 105.88,
        "R Ninan": 50,
        "S Aravind": 150,
        "MS Wade": 66.67,
        "TD Paine": 34.48,
        "SB Wagh": 66.67,
        "AC Thomas": 105.26,
        "JEC Franklin": 105.83,
        "Shakib Al Hasan": 134.23,
        "DH Yagnik": 119.72,
        "S Randiv": 50,
        "BJ Haddin": 163.64,
        "NLTC Perera": 122.43,
        "NL McCullum": 113.04,
        "JE Taylor": 75,
        "J Syed Mohammad": 107.41,
        "RN ten Doeschate": 137.31,
        "TR Birt": 127.12,
        "AG Murtaza": 71.43,
        "Harpreet Singh": 76.92,
        "M Klinger": 93.59,
        "AC Blizzard": 131.87,
        "I Malhotra": 175,
        "L Ablish": 0,
        "CA Ingram": 80.77,
        "S Nadeem": 42,
        "P Parameswaran": 33.33,
        "CJ Ferguson": 82.35,
        "VR Aaron": 85.71,
        "AA Chavan": 109.09,
        "ND Doshi": 0,
        "B Kumar": 79.66,
        "Y Gnaneswara Rao": 105.56,
        "S Rana": 110.98,
        "BA Bhatt": 85.71,
        "F du Plessis": 127.45,
        "RE Levi": 112.16,
        "GJ Maxwell": 169.71,
        "SPD Smith": 129.17,
        "MN Samuels": 92.96,
        "SA Yadav": 129.13,
        "KK Cooper": 165.71,
        "JP Faulkner": 148.24,
        "HV Patel": 116.67,
        "DAJ Bracewell": 133.33,
        "DJ Harris": 107.77,
        "Ankit Sharma": 118.18,
        "SP Narine": 93.02,
        "GB Hogg": 93.75,
        "RR Bhatkal": 0,
        "CJ McKay": 53.33,
        "N Saini": 97.9,
        "DA Miller": 150.31,
        "Azhar Mahmood": 126.07,
        "P Negi": 120,
        "RJ Peterson": 100,
        "KMDN Kulasekara": 166.67,
        "A Ashish Reddy": 133.33,
        "V Pratap Singh": 0,
        "BB Samantray": 107.76,
        "MJ Clarke": 102.08,
        "Gurkeerat Singh": 127.63,
        "AP Majumdar": 112.99,
        "PA Reddy": 98.2,
        "K Upadhyay": 133.33,
        "P Awana": 35.71,
        "AD Russell": 120,
        "A Chandila": 57.14,
        "CA Lynn": 103.23,
        "Sunny Gupta": 0,
        "MC Juneja": 93.28,
        "KK Nair": 136.14,
        "GH Vihari": 83.97,
        "MDKJ Perera": 107.69,
        "R Shukla": 82.61,
        "B Laughlin": 44.44,
        "AS Rajpoot": 33.33,
        "M Vohra": 134.35,
        "JD Unadkat": 37.5,
        "Mohammed Shami": 44.44,
        "BMAJ Mendis": 85.19,
        "R Rampaul": 98.08,
        "CH Morris": 82.35,
        "SV Samson": 118.74,
        "SMSM Senanayake": 58.82,
        "BJ Rohrer": 132.19,
        "KL Rahul": 102.2,
        "Q de Kock": 107.43,
        "R Dhawan": 107.29,
        "MG Johnson": 107.95,
        "LJ Wright": 168.25,
        "IC Pandey": 0,
        "CM Gautam": 107.84,
        "X Thalaivan Sargunam": 58.82,
        "DJG Sammy": 121.03,
        "KW Richardson": 92.11,
        "MM Sharma": 12.5,
        "UA Birla": 46.67,
        "Parvez Rasool": 55.56,
        "Sandeep Sharma": 33.33,
        "S Kaul": 81.82,
        "Sachin Baby": 42.86,
        "PV Tambe": 53.33,
        "NM Coulter-Nile": 150,
        "CJ Anderson": 142.47,
        "NJ Maddinson": 114.29,
        "AR Patel": 101.64,
        "JJ Bumrah": 25,
        "JDS Neesham": 91.3,
        "TG Southee": 100,
        "MA Starc": 101.19,
        "BR Dunk": 111.11,
        "RR Rossouw": 95.12,
        "Shivam Sharma": 166.67,
        "YS Chahal": 50,
        "LMP Simmons": 131.77,
        "VH Zol": 111.54,
        "BCJ Cutting": 133.33,
        "Imran Tahir": 80,
        "BE Hendricks": 0,
        "S Gopal": 110,
        "M de Lange": 50,
        "R Tewatia": 123.08,
        "JO Holder": 133.33,
        "Karanveer Singh": 100
    },
    "2015": {
        "SC Ganguly": 101.73,
        "BB McCullum": 123.8,
        "RT Ponting": 70.54,
        "DJ Hussey": 120.07,
        "Mohammad Hafeez": 76.19,
        "R Dravid": 113.35,
        "W Jaffer": 100.78,
        "V Kohli": 121.69,
        "JH Kallis": 105.94,
        "CL White": 125.45,
        "MV Boucher": 123.9,
        "B Akhil": 133.33,
        "AA Noffke": 75,
        "P Kumar": 107.32,
        "Z Khan": 93.04,
        "SB Joshi": 37.5,
        "PA Patel": 109.99,
        "ML Hayden": 131.94,
        "MEK Hussey": 119.96,
        "MS Dhoni": 135.79,
        "SK Raina": 135.39,
        "JDP Oram": 96.36,
        "S Badrinath": 115.74,
        "K Goel": 91.21,
        "JR Hopes": 132.8,
        "KC Sangakkara": 118.47,
        "Yuvraj Singh": 125.25,
        "SM Katich": 126.18,
        "IK Pathan": 117.46,
        "T Kohli": 55,
        "YK Pathan": 142.49,
        "SR Watson": 137.14,
        "M Kaif": 100.39,
        "DS Lehmann": 94.74,
        "RA Jadeja": 120.16,
        "M Rawat": 78.57,
        "D Salunkhe": 137.5,
        "SK Warne": 90.41,
        "SK Trivedi": 68.85,
        "G Gambhir": 120.31,
        "V Sehwag": 148.83,
        "S Dhawan": 118.18,
        "L Ronchi": 91.89,
        "ST Jayasuriya": 134.03,
        "DJ Thornely": 72.22,
        "RV Uthappa": 123.75,
        "PR Shah": 94.85,
        "AM Nayar": 114.29,
        "SM Pollock": 126.72,
        "Harbhajan Singh": 143.06,
        "S Chanderpaul": 75.76,
        "LRPL Taylor": 120.07,
        "AC Gilchrist": 133.05,
        "Y Venugopal Rao": 113.87,
        "VVS Laxman": 104.06,
        "A Symonds": 124.71,
        "RG Sharma": 129,
        "SB Styris": 97.76,
        "AS Yadav": 122.5,
        "SB Bangar": 84.48,
        "WPUJC Vaas": 110.96,
        "RP Singh": 66.67,
        "WP Saha": 129.84,
        "LR Shukla": 113.13,
        "DPMD Jayawardene": 118.79,
        "S Sohal": 118.33,
        "B Lee": 121.57,
        "PP Chawla": 111.72,
        "WA Mota": 73.68,
        "Kamran Akmal": 164.1,
        "Shahid Afridi": 176.09,
        "DJ Bravo": 123.2,
        "MA Khote": 109.09,
        "A Nehra": 64.52,
        "GC Smith": 106.95,
        "Pankaj Singh": 58.33,
        "RR Sarwan": 93.59,
        "S Sreesanth": 59.65,
        "VRV Singh": 133.33,
        "SS Tiwary": 115.07,
        "DS Kulkarni": 74.7,
        "R Vinay Kumar": 106.59,
        "AB Agarkar": 111.87,
        "M Kartik": 103.67,
        "I Sharma": 80.43,
        "AM Rahane": 116.32,
        "Shoaib Malik": 106.12,
        "MK Tiwary": 110.15,
        "KD Karthik": 121.33,
        "R Bhatia": 115.42,
        "MF Maharoof": 142.74,
        "VY Mahesh": 53.57,
        "TM Srivastava": 72.73,
        "B Chipli": 109.38,
        "DW Steyn": 103.77,
        "DB Das": 113.86,
        "MK Pandey": 113.11,
        "HH Gibbs": 105.85,
        "DNT Zoysa": 122.22,
        "D Kalyankrishna": 37.5,
        "SE Marsh": 130.68,
        "SA Asnodkar": 120.17,
        "Sohail Tanvir": 116.13,
        "Salman Butt": 112.21,
        "BJ Hodge": 121.42,
        "Umar Gul": 205.26,
        "AB Dinda": 45.24,
        "SP Fleming": 114.62,
        "S Vidyut": 126.09,
        "JA Morkel": 136.42,
        "AB de Villiers": 142.24,
        "LPC Silva": 148.15,
        "DB Ravi Teja": 115.38,
        "Misbah-ul-Haq": 142.68,
        "YV Takawale": 104.92,
        "RR Raje": 111.11,
        "PJ Sangwan": 68.75,
        "Mohammad Asif": 50,
        "GD McGrath": 80,
        "Joginder Sharma": 120,
        "MS Gony": 130.26,
        "M Muralitharan": 66.67,
        "M Ntini": 57.89,
        "DT Patil": 100,
        "A Kumble": 71.43,
        "S Anirudha": 112.4,
        "MM Patel": 97.5,
        "CK Kapugedera": 66.67,
        "A Chopra": 70.67,
        "T Taibu": 119.23,
        "J Arunkumar": 95.83,
        "PP Ojha": 35.56,
        "SP Goswami": 92.69,
        "SR Tendulkar": 114.19,
        "U Kaul": 0,
        "TM Dilshan": 110.12,
        "A Mishra": 91.99,
        "AD Mascarenhas": 100,
        "Niraj Patel": 97.58,
        "LA Pomersbach": 120.32,
        "Iqbal Abdulla": 88.46,
        "Younis Khan": 42.86,
        "PM Sarvesh Kumar": 50,
        "DP Vijaykumar": 100,
        "Shoaib Akhtar": 25,
        "Abdur Razzak": 0,
        "H Das": 40,
        "DR Smith": 128.4,
        "SD Chitnis": 107.61,
        "CRD Fernando": 133.33,
        "VS Yeligati": 100,
        "L Balaji": 72,
        "A Mukund": 82.61,
        "RR Powar": 104.69,
        "JP Duminy": 122,
        "A Flintoff": 108.77,
        "T Thushara": 63.16,
        "JD Ryder": 129.61,
        "KP Pietersen": 133.14,
        "T Henderson": 68.75,
        "Kamran Khan": 60,
        "RS Bopara": 113.46,
        "CH Gayle": 146.48,
        "MC Henriques": 126.87,
        "R Bishnoi": 111.76,
        "FH Edwards": 80,
        "KV Sharma": 111,
        "PC Valthaty": 116.9,
        "RJ Quiney": 98.1,
        "AS Raut": 112.79,
        "Yashpal Singh": 70.15,
        "M Manhas": 105.76,
        "AA Bilakhia": 78.41,
        "AN Ghosh": 87.5,
        "BAW Mendis": 50,
        "DL Vettori": 102.54,
        "MN van Wyk": 123.7,
        "RE van der Merwe": 110.42,
        "TL Suman": 115.16,
        "Shoaib Ahmed": 16.67,
        "GR Napier": 93.75,
        "KP Appanna": 50,
        "LA Carseldine": 114.08,
        "NV Ojha": 116.96,
        "SM Harwood": 64.29,
        "M Vijay": 119.72,
        "SB Jakati": 96.43,
        "DA Warner": 135.68,
        "RJ Harris": 104.46,
        "D du Preez": 76.92,
        "M Morkel": 135.87,
        "AD Mathews": 121.19,
        "J Botha": 112.36,
        "C Nanda": 0,
        "SL Malinga": 81,
        "Mashrafe Mortaza": 100,
        "A Singh": 20,
        "GJ Bailey": 127.81,
        "AB McDonald": 119.42,
        "Y Nagar": 105.17,
        "SS Shaikh": 85.71,
        "R Ashwin": 91.35,
        "Mohammad Ashraful": 16.67,
        "CA Pujara": 96.77,
        "OA Shah": 124.94,
        "Anirudh Singh": 91.3,
        "Jaskaran Singh": 72.73,
        "AP Tare": 127.76,
        "AT Rayudu": 124.44,
        "R Sathish": 116.04,
        "R McLaren": 89.33,
        "AA Jhunjhunwala": 99.54,
        "P Dogra": 90.07,
        "A Uniyal": 57.14,
        "MS Bisla": 108.28,
        "YA Abdulla": 0,
        "EJG Morgan": 119.35,
        "JM Kemp": 104,
        "S Tyagi": 75,
        "RS Gavaskar": 25,
        "SE Bond": 50,
        "KA Pollard": 143.06,
        "S Ladda": 0,
        "DP Nannes": 30.77,
        "MJ Lumb": 140.4,
        "DR Martyn": 73.08,
        "S Narwal": 127.59,
        "AB Barath": 97.67,
        "Bipul Sharma": 141.89,
        "FY Fazal": 102.23,
        "AC Voges": 126.57,
        "MD Mishra": 111.27,
        "UT Yadav": 98.68,
        "J Theron": 76.92,
        "SJ Srivastava": 100,
        "R Sharma": 85.71,
        "Mandeep Singh": 121.58,
        "KM Jadhav": 127.79,
        "SW Tait": 88.46,
        "KB Arun Karthik": 96.23,
        "KAJ Roach": 111.11,
        "PD Collingwood": 127.67,
        "CK Langeveldt": 88.89,
        "VS Malik": 100,
        "A Mithun": 130.77,
        "AP Dole": 147.83,
        "AN Ahmed": 133.33,
        "RS Sodhi": 200,
        "DE Bollinger": 91.3,
        "S Sriram": 81.58,
        "B Sumanth": 92.11,
        "C Madan": 71.43,
        "AG Paunikar": 80.33,
        "MR Marsh": 114.74,
        "AJ Finch": 118.47,
        "STR Binny": 124.75,
        "Harmeet Singh": 150,
        "IR Jaggi": 71.67,
        "DT Christian": 114.05,
        "RV Gomez": 94.34,
        "MA Agarwal": 119.47,
        "AUK Pathan": 150,
        "UBT Chand": 97.09,
        "DJ Jacobs": 91.09,
        "Sunny Singh": 138.71,
        "NJ Rimmington": 100,
        "AL Menaria": 109.26,
        "WD Parnell": 78.75,
        "JJ van der Wath": 105.88,
        "R Ninan": 50,
        "S Aravind": 142.11,
        "MS Wade": 66.67,
        "TD Paine": 34.48,
        "SB Wagh": 66.67,
        "AC Thomas": 105.26,
        "JEC Franklin": 105.83,
        "Shakib Al Hasan": 131.85,
        "DH Yagnik": 119.72,
        "S Randiv": 50,
        "BJ Haddin": 163.64,
        "NLTC Perera": 119.65,
        "NL McCullum": 113.04,
        "JE Taylor": 75,
        "J Syed Mohammad": 107.41,
        "RN ten Doeschate": 136.97,
        "TR Birt": 127.12,
        "AG Murtaza": 71.43,
        "Harpreet Singh": 76.92,
        "M Klinger": 93.59,
        "AC Blizzard": 131.87,
        "I Malhotra": 175,
        "L Ablish": 0,
        "CA Ingram": 80.77,
        "S Nadeem": 40.35,
        "P Parameswaran": 33.33,
        "CJ Ferguson": 82.35,
        "VR Aaron": 93.33,
        "AA Chavan": 109.09,
        "ND Doshi": 0,
        "B Kumar": 86.72,
        "Y Gnaneswara Rao": 105.56,
        "S Rana": 110.98,
        "BA Bhatt": 85.71,
        "F du Plessis": 124.68,
        "RE Levi": 112.16,
        "GJ Maxwell": 159.14,
        "SPD Smith": 129.64,
        "MN Samuels": 92.96,
        "SA Yadav": 132.64,
        "KK Cooper": 165.71,
        "JP Faulkner": 138.46,
        "HV Patel": 123.68,
        "DAJ Bracewell": 133.33,
        "DJ Harris": 107.77,
        "Ankit Sharma": 118,
        "SP Narine": 90.91,
        "GB Hogg": 100,
        "RR Bhatkal": 0,
        "CJ McKay": 53.33,
        "N Saini": 97.9,
        "DA Miller": 144.31,
        "Azhar Mahmood": 124.76,
        "P Negi": 142.06,
        "RJ Peterson": 100,
        "KMDN Kulasekara": 166.67,
        "A Ashish Reddy": 140.36,
        "V Pratap Singh": 0,
        "BB Samantray": 107.76,
        "MJ Clarke": 102.08,
        "Gurkeerat Singh": 118.65,
        "AP Majumdar": 112.99,
        "PA Reddy": 98.2,
        "K Upadhyay": 133.33,
        "P Awana": 35.71,
        "AD Russell": 171.56,
        "A Chandila": 57.14,
        "CA Lynn": 103.23,
        "Sunny Gupta": 0,
        "MC Juneja": 93.28,
        "KK Nair": 131.31,
        "GH Vihari": 86.69,
        "MDKJ Perera": 107.69,
        "R Shukla": 82.61,
        "B Laughlin": 44.44,
        "AS Rajpoot": 33.33,
        "M Vohra": 127.7,
        "JD Unadkat": 37.5,
        "Mohammed Shami": 44.44,
        "BMAJ Mendis": 85.19,
        "R Rampaul": 98.08,
        "CH Morris": 140.63,
        "SV Samson": 119.84,
        "SMSM Senanayake": 58.82,
        "BJ Rohrer": 132.19,
        "KL Rahul": 104.13,
        "Q de Kock": 124.34,
        "R Dhawan": 107.75,
        "MG Johnson": 100,
        "LJ Wright": 168.25,
        "IC Pandey": 0,
        "CM Gautam": 106.96,
        "X Thalaivan Sargunam": 58.82,
        "DJG Sammy": 117.53,
        "KW Richardson": 92.11,
        "MM Sharma": 111.54,
        "UA Birla": 46.67,
        "Parvez Rasool": 63.64,
        "Sandeep Sharma": 55,
        "S Kaul": 81.82,
        "Sachin Baby": 42.86,
        "PV Tambe": 55,
        "NM Coulter-Nile": 111.54,
        "CJ Anderson": 133.45,
        "NJ Maddinson": 95.24,
        "AR Patel": 110.74,
        "JJ Bumrah": 25,
        "JDS Neesham": 91.3,
        "TG Southee": 130.77,
        "MA Starc": 97.96,
        "BR Dunk": 111.11,
        "RR Rossouw": 103.92,
        "Shivam Sharma": 166.67,
        "YS Chahal": 66.67,
        "LMP Simmons": 123.87,
        "VH Zol": 111.54,
        "BCJ Cutting": 133.33,
        "Imran Tahir": 81.25,
        "BE Hendricks": 33.33,
        "S Gopal": 109.09,
        "M de Lange": 50,
        "R Tewatia": 123.08,
        "JO Holder": 133.33,
        "Karanveer Singh": 70.59,
        "SS Iyer": 121.94,
        "DJ Hooda": 152.53,
        "Anureet Singh": 58.06,
        "KS Williamson": 106.9,
        "SA Abbott": 115.38,
        "J Suchith": 145.45,
        "RG More": 100,
        "HH Pandya": 164.71,
        "D Wiese": 135.56,
        "SN Khan": 154.17,
        "MJ McClenaghan": 216.67,
        "DJ Muthuswami": 33.33,
        "PJ Cummins": 0,
        "SN Thakur": 116.67
    },
    "2016": {
        "SC Ganguly": 101.73,
        "BB McCullum": 124.62,
        "RT Ponting": 70.54,
        "DJ Hussey": 120.07,
        "Mohammad Hafeez": 76.19,
        "R Dravid": 113.35,
        "W Jaffer": 100.78,
        "V Kohli": 127.12,
        "JH Kallis": 105.94,
        "CL White": 125.45,
        "MV Boucher": 123.9,
        "B Akhil": 133.33,
        "AA Noffke": 75,
        "P Kumar": 105.73,
        "Z Khan": 88.28,
        "SB Joshi": 37.5,
        "PA Patel": 109.99,
        "ML Hayden": 131.94,
        "MEK Hussey": 119.96,
        "MS Dhoni": 135.18,
        "SK Raina": 134.23,
        "JDP Oram": 96.36,
        "S Badrinath": 115.74,
        "K Goel": 91.21,
        "JR Hopes": 132.8,
        "KC Sangakkara": 118.47,
        "Yuvraj Singh": 125.62,
        "SM Katich": 126.18,
        "IK Pathan": 116.9,
        "T Kohli": 55,
        "YK Pathan": 142.29,
        "SR Watson": 136.81,
        "M Kaif": 100.39,
        "DS Lehmann": 94.74,
        "RA Jadeja": 117.46,
        "M Rawat": 78.57,
        "D Salunkhe": 137.5,
        "SK Warne": 90.41,
        "SK Trivedi": 68.85,
        "G Gambhir": 120.01,
        "V Sehwag": 148.83,
        "S Dhawan": 117.54,
        "L Ronchi": 91.89,
        "ST Jayasuriya": 134.03,
        "DJ Thornely": 72.22,
        "RV Uthappa": 124.59,
        "PR Shah": 94.85,
        "AM Nayar": 114.29,
        "SM Pollock": 126.72,
        "Harbhajan Singh": 136.41,
        "S Chanderpaul": 75.76,
        "LRPL Taylor": 120.07,
        "AC Gilchrist": 133.05,
        "Y Venugopal Rao": 113.87,
        "VVS Laxman": 104.06,
        "A Symonds": 124.71,
        "RG Sharma": 129.31,
        "SB Styris": 97.76,
        "AS Yadav": 122.5,
        "SB Bangar": 84.48,
        "WPUJC Vaas": 110.96,
        "RP Singh": 66.67,
        "WP Saha": 129.07,
        "LR Shukla": 113.13,
        "DPMD Jayawardene": 118.79,
        "S Sohal": 118.33,
        "B Lee": 121.57,
        "PP Chawla": 111.28,
        "WA Mota": 73.68,
        "Kamran Akmal": 164.1,
        "Shahid Afridi": 176.09,
        "DJ Bravo": 122.29,
        "MA Khote": 109.09,
        "A Nehra": 65.08,
        "GC Smith": 106.95,
        "Pankaj Singh": 58.33,
        "RR Sarwan": 93.59,
        "S Sreesanth": 59.65,
        "VRV Singh": 133.33,
        "SS Tiwary": 114.93,
        "DS Kulkarni": 89.9,
        "R Vinay Kumar": 106.67,
        "AB Agarkar": 111.87,
        "M Kartik": 103.67,
        "I Sharma": 80.43,
        "AM Rahane": 117.63,
        "Shoaib Malik": 106.12,
        "MK Tiwary": 110.15,
        "KD Karthik": 121.51,
        "R Bhatia": 119.41,
        "MF Maharoof": 142.74,
        "VY Mahesh": 53.57,
        "TM Srivastava": 72.73,
        "B Chipli": 109.38,
        "DW Steyn": 103.11,
        "DB Das": 113.86,
        "MK Pandey": 115.2,
        "HH Gibbs": 105.85,
        "DNT Zoysa": 122.22,
        "D Kalyankrishna": 37.5,
        "SE Marsh": 129.74,
        "SA Asnodkar": 120.17,
        "Sohail Tanvir": 116.13,
        "Salman Butt": 112.21,
        "BJ Hodge": 121.42,
        "Umar Gul": 205.26,
        "AB Dinda": 45.24,
        "SP Fleming": 114.62,
        "S Vidyut": 126.09,
        "JA Morkel": 136.94,
        "AB de Villiers": 146.57,
        "LPC Silva": 148.15,
        "DB Ravi Teja": 115.38,
        "Misbah-ul-Haq": 142.68,
        "YV Takawale": 104.92,
        "RR Raje": 111.11,
        "PJ Sangwan": 68.75,
        "Mohammad Asif": 50,
        "GD McGrath": 80,
        "Joginder Sharma": 120,
        "MS Gony": 130.26,
        "M Muralitharan": 66.67,
        "M Ntini": 57.89,
        "DT Patil": 100,
        "A Kumble": 71.43,
        "S Anirudha": 112.4,
        "MM Patel": 97.5,
        "CK Kapugedera": 66.67,
        "A Chopra": 70.67,
        "T Taibu": 119.23,
        "J Arunkumar": 95.83,
        "PP Ojha": 35.56,
        "SP Goswami": 92.69,
        "SR Tendulkar": 114.19,
        "U Kaul": 0,
        "TM Dilshan": 110.12,
        "A Mishra": 89.26,
        "AD Mascarenhas": 100,
        "Niraj Patel": 97.58,
        "LA Pomersbach": 120.32,
        "Iqbal Abdulla": 105.06,
        "Younis Khan": 42.86,
        "PM Sarvesh Kumar": 50,
        "DP Vijaykumar": 100,
        "Shoaib Akhtar": 25,
        "Abdur Razzak": 0,
        "H Das": 40,
        "DR Smith": 130.46,
        "SD Chitnis": 107.61,
        "CRD Fernando": 133.33,
        "VS Yeligati": 100,
        "L Balaji": 72,
        "A Mukund": 82.61,
        "RR Powar": 104.69,
        "JP Duminy": 121.97,
        "A Flintoff": 108.77,
        "T Thushara": 63.16,
        "JD Ryder": 129.61,
        "KP Pietersen": 132.06,
        "T Henderson": 68.75,
        "Kamran Khan": 60,
        "RS Bopara": 113.46,
        "CH Gayle": 146.23,
        "MC Henriques": 122.7,
        "R Bishnoi": 111.76,
        "FH Edwards": 80,
        "KV Sharma": 110.29,
        "PC Valthaty": 116.9,
        "RJ Quiney": 98.1,
        "AS Raut": 112.79,
        "Yashpal Singh": 70.15,
        "M Manhas": 105.76,
        "AA Bilakhia": 78.41,
        "AN Ghosh": 87.5,
        "BAW Mendis": 50,
        "DL Vettori": 102.54,
        "MN van Wyk": 123.7,
        "RE van der Merwe": 110.42,
        "TL Suman": 115.16,
        "Shoaib Ahmed": 16.67,
        "GR Napier": 93.75,
        "KP Appanna": 50,
        "LA Carseldine": 114.08,
        "NV Ojha": 114.62,
        "SM Harwood": 64.29,
        "M Vijay": 120.03,
        "SB Jakati": 93.33,
        "DA Warner": 138.24,
        "RJ Harris": 104.46,
        "D du Preez": 76.92,
        "M Morkel": 135.48,
        "AD Mathews": 121.19,
        "J Botha": 112.36,
        "C Nanda": 0,
        "SL Malinga": 81,
        "Mashrafe Mortaza": 100,
        "A Singh": 20,
        "GJ Bailey": 120.11,
        "AB McDonald": 119.42,
        "Y Nagar": 105.17,
        "SS Shaikh": 85.71,
        "R Ashwin": 93.9,
        "Mohammad Ashraful": 16.67,
        "CA Pujara": 96.77,
        "OA Shah": 124.94,
        "Anirudh Singh": 91.3,
        "Jaskaran Singh": 72.73,
        "AP Tare": 123.46,
        "AT Rayudu": 123.41,
        "R Sathish": 114.41,
        "R McLaren": 89.33,
        "AA Jhunjhunwala": 99.54,
        "P Dogra": 90.07,
        "A Uniyal": 57.14,
        "MS Bisla": 108.28,
        "YA Abdulla": 0,
        "EJG Morgan": 119,
        "JM Kemp": 104,
        "S Tyagi": 75,
        "RS Gavaskar": 25,
        "SE Bond": 50,
        "KA Pollard": 141.96,
        "S Ladda": 0,
        "DP Nannes": 30.77,
        "MJ Lumb": 140.4,
        "DR Martyn": 73.08,
        "S Narwal": 127.59,
        "AB Barath": 97.67,
        "Bipul Sharma": 157.58,
        "FY Fazal": 102.23,
        "AC Voges": 126.57,
        "MD Mishra": 111.27,
        "UT Yadav": 102.44,
        "J Theron": 76.92,
        "SJ Srivastava": 100,
        "R Sharma": 85.71,
        "Mandeep Singh": 121.58,
        "KM Jadhav": 127.76,
        "SW Tait": 88.46,
        "KB Arun Karthik": 96.23,
        "KAJ Roach": 111.11,
        "PD Collingwood": 127.67,
        "CK Langeveldt": 88.89,
        "VS Malik": 100,
        "A Mithun": 130.77,
        "AP Dole": 147.83,
        "AN Ahmed": 133.33,
        "RS Sodhi": 200,
        "DE Bollinger": 91.3,
        "S Sriram": 81.58,
        "B Sumanth": 92.11,
        "C Madan": 71.43,
        "AG Paunikar": 80.33,
        "MR Marsh": 111.94,
        "AJ Finch": 120.74,
        "STR Binny": 126.94,
        "Harmeet Singh": 150,
        "IR Jaggi": 71.67,
        "DT Christian": 114.05,
        "RV Gomez": 94.34,
        "MA Agarwal": 118.85,
        "AUK Pathan": 150,
        "UBT Chand": 95.54,
        "DJ Jacobs": 91.09,
        "Sunny Singh": 138.71,
        "NJ Rimmington": 100,
        "AL Menaria": 109.26,
        "WD Parnell": 78.75,
        "JJ van der Wath": 105.88,
        "R Ninan": 50,
        "S Aravind": 142.11,
        "MS Wade": 66.67,
        "TD Paine": 34.48,
        "SB Wagh": 66.67,
        "AC Thomas": 105.26,
        "JEC Franklin": 105.83,
        "Shakib Al Hasan": 124.75,
        "DH Yagnik": 119.72,
        "S Randiv": 50,
        "BJ Haddin": 163.64,
        "NLTC Perera": 130.06,
        "NL McCullum": 113.04,
        "JE Taylor": 75,
        "J Syed Mohammad": 107.41,
        "RN ten Doeschate": 136.97,
        "TR Birt": 127.12,
        "AG Murtaza": 71.43,
        "Harpreet Singh": 76.92,
        "M Klinger": 93.59,
        "AC Blizzard": 131.87,
        "I Malhotra": 175,
        "L Ablish": 0,
        "CA Ingram": 80.77,
        "S Nadeem": 38.71,
        "P Parameswaran": 33.33,
        "CJ Ferguson": 82.35,
        "VR Aaron": 93.33,
        "AA Chavan": 109.09,
        "ND Doshi": 0,
        "B Kumar": 98.72,
        "Y Gnaneswara Rao": 105.56,
        "S Rana": 110.98,
        "BA Bhatt": 85.71,
        "F du Plessis": 124.23,
        "RE Levi": 112.16,
        "GJ Maxwell": 154.71,
        "SPD Smith": 133.01,
        "MN Samuels": 92.96,
        "SA Yadav": 128.97,
        "KK Cooper": 165.71,
        "JP Faulkner": 136.71,
        "HV Patel": 123.68,
        "DAJ Bracewell": 133.33,
        "DJ Harris": 107.77,
        "Ankit Sharma": 116.98,
        "SP Narine": 81.03,
        "GB Hogg": 100,
        "RR Bhatkal": 0,
        "CJ McKay": 53.33,
        "N Saini": 97.9,
        "DA Miller": 140.55,
        "Azhar Mahmood": 124.76,
        "P Negi": 122.94,
        "RJ Peterson": 100,
        "KMDN Kulasekara": 166.67,
        "A Ashish Reddy": 142.86,
        "V Pratap Singh": 0,
        "BB Samantray": 107.76,
        "MJ Clarke": 102.08,
        "Gurkeerat Singh": 122.14,
        "AP Majumdar": 112.99,
        "PA Reddy": 98.2,
        "K Upadhyay": 133.33,
        "P Awana": 35.71,
        "AD Russell": 164,
        "A Chandila": 57.14,
        "CA Lynn": 104.71,
        "Sunny Gupta": 0,
        "MC Juneja": 93.28,
        "KK Nair": 125.29,
        "GH Vihari": 86.69,
        "MDKJ Perera": 107.69,
        "R Shukla": 82.61,
        "B Laughlin": 44.44,
        "AS Rajpoot": 33.33,
        "M Vohra": 125.52,
        "JD Unadkat": 37.5,
        "Mohammed Shami": 45.45,
        "BMAJ Mendis": 85.19,
        "R Rampaul": 98.08,
        "CH Morris": 160.11,
        "SV Samson": 116.85,
        "SMSM Senanayake": 58.82,
        "BJ Rohrer": 132.19,
        "KL Rahul": 122.47,
        "Q de Kock": 128.27,
        "R Dhawan": 113.33,
        "MG Johnson": 93.57,
        "LJ Wright": 168.25,
        "IC Pandey": 0,
        "CM Gautam": 106.96,
        "X Thalaivan Sargunam": 58.82,
        "DJG Sammy": 117.53,
        "KW Richardson": 92.31,
        "MM Sharma": 115.09,
        "UA Birla": 46.67,
        "Parvez Rasool": 85,
        "Sandeep Sharma": 65.52,
        "S Kaul": 81.82,
        "Sachin Baby": 137.08,
        "PV Tambe": 46.15,
        "NM Coulter-Nile": 95,
        "CJ Anderson": 133.45,
        "NJ Maddinson": 95.24,
        "AR Patel": 117.34,
        "JJ Bumrah": 60,
        "JDS Neesham": 91.3,
        "TG Southee": 142.42,
        "MA Starc": 97.96,
        "BR Dunk": 111.11,
        "RR Rossouw": 103.92,
        "Shivam Sharma": 166.67,
        "YS Chahal": 66.67,
        "LMP Simmons": 123.62,
        "VH Zol": 111.54,
        "BCJ Cutting": 169.77,
        "Imran Tahir": 78.26,
        "BE Hendricks": 33.33,
        "S Gopal": 51.85,
        "M de Lange": 50,
        "R Tewatia": 123.08,
        "JO Holder": 118.75,
        "Karanveer Singh": 70.59,
        "SS Iyer": 115.52,
        "DJ Hooda": 131.7,
        "Anureet Singh": 58.06,
        "KS Williamson": 100,
        "SA Abbott": 115.38,
        "J Suchith": 145.45,
        "RG More": 100,
        "HH Pandya": 116.42,
        "D Wiese": 135.11,
        "SN Khan": 171.84,
        "MJ McClenaghan": 162.07,
        "DJ Muthuswami": 33.33,
        "PJ Cummins": 0,
        "SN Thakur": 116.67,
        "JC Buttler": 134.92,
        "CR Brathwaite": 207.5,
        "MP Stoinis": 131.53,
        "Ishan Kishan": 102.44,
        "C Munro": 96.77,
        "P Sahu": 146.15,
        "KH Pandya": 186.61,
        "AD Nath": 74.07,
        "MJ Guptill": 103.64,
        "KJ Abbott": 162.5,
        "TM Head": 128.57,
        "M Ashwin": 0,
        "NS Naik": 69.7,
        "RR Pant": 127.74,
        "SW Billings": 133.33,
        "KC Cariappa": 118.18,
        "PSP Handscomb": 50,
        "Swapnil Singh": 0,
        "J Yadav": 50,
        "UT Khawaja": 120.95,
        "HM Amla": 128.69,
        "F Behardien": 107.69,
        "BB Sran": 100,
        "A Zampa": 0,
        "N Rana": 133.33,
        "S Kaushik": 0,
        "ER Dwivedi": 160,
        "CJ Jordan": 75
    },
    "2017": {
        "SC Ganguly": 101.73,
        "BB McCullum": 126.32,
        "RT Ponting": 70.54,
        "DJ Hussey": 120.07,
        "Mohammad Hafeez": 76.19,
        "R Dravid": 113.35,
        "W Jaffer": 100.78,
        "V Kohli": 126.59,
        "JH Kallis": 105.94,
        "CL White": 125.45,
        "MV Boucher": 123.9,
        "B Akhil": 133.33,
        "AA Noffke": 75,
        "P Kumar": 105.26,
        "Z Khan": 82.98,
        "SB Joshi": 37.5,
        "PA Patel": 112.72,
        "ML Hayden": 131.94,
        "MEK Hussey": 119.96,
        "MS Dhoni": 132.84,
        "SK Raina": 135,
        "JDP Oram": 96.36,
        "S Badrinath": 115.74,
        "K Goel": 91.21,
        "JR Hopes": 132.8,
        "KC Sangakkara": 118.47,
        "Yuvraj Singh": 126.39,
        "SM Katich": 126.18,
        "IK Pathan": 116.75,
        "T Kohli": 55,
        "YK Pathan": 140.75,
        "SR Watson": 134.84,
        "M Kaif": 100.39,
        "DS Lehmann": 94.74,
        "RA Jadeja": 118.79,
        "M Rawat": 78.57,
        "D Salunkhe": 137.5,
        "SK Warne": 90.41,
        "SK Trivedi": 68.85,
        "G Gambhir": 120.36,
        "V Sehwag": 148.83,
        "S Dhawan": 118.5,
        "L Ronchi": 91.89,
        "ST Jayasuriya": 134.03,
        "DJ Thornely": 72.22,
        "RV Uthappa": 127.64,
        "PR Shah": 94.85,
        "AM Nayar": 114.29,
        "SM Pollock": 126.72,
        "Harbhajan Singh": 135.19,
        "S Chanderpaul": 75.76,
        "LRPL Taylor": 120.07,
        "AC Gilchrist": 133.05,
        "Y Venugopal Rao": 113.87,
        "VVS Laxman": 104.06,
        "A Symonds": 124.71,
        "RG Sharma": 128.5,
        "SB Styris": 97.76,
        "AS Yadav": 122.5,
        "SB Bangar": 84.48,
        "WPUJC Vaas": 110.96,
        "RP Singh": 66.67,
        "WP Saha": 127.73,
        "LR Shukla": 113.13,
        "DPMD Jayawardene": 118.79,
        "S Sohal": 118.33,
        "B Lee": 121.57,
        "PP Chawla": 110.28,
        "WA Mota": 73.68,
        "Kamran Akmal": 164.1,
        "Shahid Afridi": 176.09,
        "DJ Bravo": 122.29,
        "MA Khote": 109.09,
        "A Nehra": 65.08,
        "GC Smith": 106.95,
        "Pankaj Singh": 58.33,
        "RR Sarwan": 93.59,
        "S Sreesanth": 59.65,
        "VRV Singh": 133.33,
        "SS Tiwary": 114.85,
        "DS Kulkarni": 89.11,
        "R Vinay Kumar": 106.67,
        "AB Agarkar": 111.87,
        "M Kartik": 103.67,
        "I Sharma": 76.27,
        "AM Rahane": 117.49,
        "Shoaib Malik": 106.12,
        "MK Tiwary": 114.13,
        "KD Karthik": 123.01,
        "R Bhatia": 117.93,
        "MF Maharoof": 142.74,
        "VY Mahesh": 53.57,
        "TM Srivastava": 72.73,
        "B Chipli": 109.38,
        "DW Steyn": 103.11,
        "DB Das": 113.86,
        "MK Pandey": 116.94,
        "HH Gibbs": 105.85,
        "DNT Zoysa": 122.22,
        "D Kalyankrishna": 37.5,
        "SE Marsh": 130.11,
        "SA Asnodkar": 120.17,
        "Sohail Tanvir": 116.13,
        "Salman Butt": 112.21,
        "BJ Hodge": 121.42,
        "Umar Gul": 205.26,
        "AB Dinda": 52,
        "SP Fleming": 114.62,
        "S Vidyut": 126.09,
        "JA Morkel": 136.94,
        "AB de Villiers": 145.13,
        "LPC Silva": 148.15,
        "DB Ravi Teja": 115.38,
        "Misbah-ul-Haq": 142.68,
        "YV Takawale": 104.92,
        "RR Raje": 111.11,
        "PJ Sangwan": 66.67,
        "Mohammad Asif": 50,
        "GD McGrath": 80,
        "Joginder Sharma": 120,
        "MS Gony": 130.26,
        "M Muralitharan": 66.67,
        "M Ntini": 57.89,
        "DT Patil": 100,
        "A Kumble": 71.43,
        "S Anirudha": 112.4,
        "MM Patel": 95.12,
        "CK Kapugedera": 66.67,
        "A Chopra": 70.67,
        "T Taibu": 119.23,
        "J Arunkumar": 95.83,
        "PP Ojha": 35.56,
        "SP Goswami": 92.69,
        "SR Tendulkar": 114.19,
        "U Kaul": 0,
        "TM Dilshan": 110.12,
        "A Mishra": 89.01,
        "AD Mascarenhas": 100,
        "Niraj Patel": 97.58,
        "LA Pomersbach": 120.32,
        "Iqbal Abdulla": 102.33,
        "Younis Khan": 42.86,
        "PM Sarvesh Kumar": 50,
        "DP Vijaykumar": 100,
        "Shoaib Akhtar": 25,
        "Abdur Razzak": 0,
        "H Das": 40,
        "DR Smith": 132.28,
        "SD Chitnis": 107.61,
        "CRD Fernando": 133.33,
        "VS Yeligati": 100,
        "L Balaji": 72,
        "A Mukund": 82.61,
        "RR Powar": 104.69,
        "JP Duminy": 121.97,
        "A Flintoff": 108.77,
        "T Thushara": 63.16,
        "JD Ryder": 129.61,
        "KP Pietersen": 132.06,
        "T Henderson": 68.75,
        "Kamran Khan": 60,
        "RS Bopara": 113.46,
        "CH Gayle": 144.19,
        "MC Henriques": 126.01,
        "R Bishnoi": 111.76,
        "FH Edwards": 80,
        "KV Sharma": 111.23,
        "PC Valthaty": 116.9,
        "RJ Quiney": 98.1,
        "AS Raut": 112.79,
        "Yashpal Singh": 70.15,
        "M Manhas": 105.76,
        "AA Bilakhia": 78.41,
        "AN Ghosh": 87.5,
        "BAW Mendis": 50,
        "DL Vettori": 102.54,
        "MN van Wyk": 123.7,
        "RE van der Merwe": 110.42,
        "TL Suman": 115.16,
        "Shoaib Ahmed": 16.67,
        "GR Napier": 93.75,
        "KP Appanna": 50,
        "LA Carseldine": 114.08,
        "NV Ojha": 114.53,
        "SM Harwood": 64.29,
        "M Vijay": 120.03,
        "SB Jakati": 93.33,
        "DA Warner": 138.32,
        "RJ Harris": 104.46,
        "D du Preez": 76.92,
        "M Morkel": 135.48,
        "AD Mathews": 120.87,
        "J Botha": 112.36,
        "C Nanda": 0,
        "SL Malinga": 85.44,
        "Mashrafe Mortaza": 100,
        "A Singh": 20,
        "GJ Bailey": 120.11,
        "AB McDonald": 119.42,
        "Y Nagar": 105.17,
        "SS Shaikh": 85.71,
        "R Ashwin": 93.9,
        "Mohammad Ashraful": 16.67,
        "CA Pujara": 96.77,
        "OA Shah": 124.94,
        "Anirudh Singh": 91.3,
        "Jaskaran Singh": 72.73,
        "AP Tare": 118.95,
        "AT Rayudu": 123.01,
        "R Sathish": 114.41,
        "R McLaren": 89.33,
        "AA Jhunjhunwala": 99.54,
        "P Dogra": 90.07,
        "A Uniyal": 57.14,
        "MS Bisla": 108.28,
        "YA Abdulla": 0,
        "EJG Morgan": 117.79,
        "JM Kemp": 104,
        "S Tyagi": 75,
        "RS Gavaskar": 25,
        "SE Bond": 50,
        "KA Pollard": 140.62,
        "S Ladda": 0,
        "DP Nannes": 30.77,
        "MJ Lumb": 140.4,
        "DR Martyn": 73.08,
        "S Narwal": 127.59,
        "AB Barath": 97.67,
        "Bipul Sharma": 150.81,
        "FY Fazal": 102.23,
        "AC Voges": 126.57,
        "MD Mishra": 111.27,
        "UT Yadav": 98.95,
        "J Theron": 76.92,
        "SJ Srivastava": 100,
        "R Sharma": 85.71,
        "Mandeep Singh": 118.55,
        "KM Jadhav": 130.56,
        "SW Tait": 88.46,
        "KB Arun Karthik": 96.23,
        "KAJ Roach": 111.11,
        "PD Collingwood": 127.67,
        "CK Langeveldt": 88.89,
        "VS Malik": 100,
        "A Mithun": 130.77,
        "AP Dole": 147.83,
        "AN Ahmed": 133.33,
        "RS Sodhi": 200,
        "DE Bollinger": 91.3,
        "S Sriram": 81.58,
        "B Sumanth": 92.11,
        "C Madan": 71.43,
        "AG Paunikar": 80.33,
        "MR Marsh": 111.94,
        "AJ Finch": 126.3,
        "STR Binny": 123.75,
        "Harmeet Singh": 150,
        "IR Jaggi": 76,
        "DT Christian": 119.66,
        "RV Gomez": 94.34,
        "MA Agarwal": 117.63,
        "AUK Pathan": 150,
        "UBT Chand": 95.54,
        "DJ Jacobs": 91.09,
        "Sunny Singh": 138.71,
        "NJ Rimmington": 100,
        "AL Menaria": 109.26,
        "WD Parnell": 78.75,
        "JJ van der Wath": 105.88,
        "R Ninan": 50,
        "S Aravind": 100,
        "MS Wade": 66.67,
        "TD Paine": 34.48,
        "SB Wagh": 66.67,
        "AC Thomas": 105.26,
        "JEC Franklin": 105.83,
        "Shakib Al Hasan": 124.69,
        "DH Yagnik": 119.72,
        "S Randiv": 50,
        "BJ Haddin": 163.64,
        "NLTC Perera": 130.06,
        "NL McCullum": 113.04,
        "JE Taylor": 75,
        "J Syed Mohammad": 107.41,
        "RN ten Doeschate": 136.97,
        "TR Birt": 127.12,
        "AG Murtaza": 71.43,
        "Harpreet Singh": 76.92,
        "M Klinger": 93.59,
        "AC Blizzard": 131.87,
        "I Malhotra": 175,
        "L Ablish": 0,
        "CA Ingram": 80.77,
        "S Nadeem": 36.62,
        "P Parameswaran": 33.33,
        "CJ Ferguson": 82.35,
        "VR Aaron": 82.14,
        "AA Chavan": 109.09,
        "ND Doshi": 0,
        "B Kumar": 98.75,
        "Y Gnaneswara Rao": 105.56,
        "S Rana": 110.98,
        "BA Bhatt": 85.71,
        "F du Plessis": 124.16,
        "RE Levi": 112.16,
        "GJ Maxwell": 157.56,
        "SPD Smith": 128.51,
        "MN Samuels": 92.53,
        "SA Yadav": 126.93,
        "KK Cooper": 165.71,
        "JP Faulkner": 129.8,
        "HV Patel": 123.68,
        "DAJ Bracewell": 133.33,
        "DJ Harris": 107.77,
        "Ankit Sharma": 126.09,
        "SP Narine": 140.41,
        "GB Hogg": 100,
        "RR Bhatkal": 0,
        "CJ McKay": 53.33,
        "N Saini": 97.9,
        "DA Miller": 137.71,
        "Azhar Mahmood": 124.76,
        "P Negi": 124.3,
        "RJ Peterson": 100,
        "KMDN Kulasekara": 166.67,
        "A Ashish Reddy": 142.86,
        "V Pratap Singh": 0,
        "BB Samantray": 107.76,
        "MJ Clarke": 102.08,
        "Gurkeerat Singh": 122.14,
        "AP Majumdar": 112.99,
        "PA Reddy": 98.2,
        "K Upadhyay": 133.33,
        "P Awana": 35.71,
        "AD Russell": 164,
        "A Chandila": 57.14,
        "CA Lynn": 147.69,
        "Sunny Gupta": 0,
        "MC Juneja": 93.28,
        "KK Nair": 124.65,
        "GH Vihari": 86.69,
        "MDKJ Perera": 107.69,
        "R Shukla": 82.61,
        "B Laughlin": 44.44,
        "AS Rajpoot": 46.15,
        "M Vohra": 127.6,
        "JD Unadkat": 38.46,
        "Mohammed Shami": 100,
        "BMAJ Mendis": 85.19,
        "R Rampaul": 98.08,
        "CH Morris": 159.64,
        "SV Samson": 122.4,
        "SMSM Senanayake": 58.82,
        "BJ Rohrer": 132.19,
        "KL Rahul": 122.47,
        "Q de Kock": 128.27,
        "R Dhawan": 113.33,
        "MG Johnson": 96.18,
        "LJ Wright": 168.25,
        "IC Pandey": 0,
        "CM Gautam": 106.96,
        "X Thalaivan Sargunam": 58.82,
        "DJG Sammy": 117.53,
        "KW Richardson": 92.31,
        "MM Sharma": 107.69,
        "UA Birla": 46.67,
        "Parvez Rasool": 85,
        "Sandeep Sharma": 72.22,
        "S Kaul": 69.23,
        "Sachin Baby": 129.25,
        "PV Tambe": 46.15,
        "NM Coulter-Nile": 98.11,
        "CJ Anderson": 125.85,
        "NJ Maddinson": 95.24,
        "AR Patel": 122.67,
        "JJ Bumrah": 92.59,
        "JDS Neesham": 91.3,
        "TG Southee": 150,
        "MA Starc": 97.96,
        "BR Dunk": 111.11,
        "RR Rossouw": 103.92,
        "Shivam Sharma": 166.67,
        "YS Chahal": 51.72,
        "LMP Simmons": 122.89,
        "VH Zol": 111.54,
        "BCJ Cutting": 177.14,
        "Imran Tahir": 72,
        "BE Hendricks": 33.33,
        "S Gopal": 51.85,
        "M de Lange": 50,
        "R Tewatia": 145.83,
        "JO Holder": 118.75,
        "Karanveer Singh": 70.59,
        "SS Iyer": 123.21,
        "DJ Hooda": 134.66,
        "Anureet Singh": 76.74,
        "KS Williamson": 126.46,
        "SA Abbott": 115.38,
        "J Suchith": 145.45,
        "RG More": 100,
        "HH Pandya": 132.68,
        "D Wiese": 135.11,
        "SN Khan": 171.84,
        "MJ McClenaghan": 140,
        "DJ Muthuswami": 33.33,
        "PJ Cummins": 137.5,
        "SN Thakur": 77.78,
        "JC Buttler": 140.8,
        "CR Brathwaite": 169.64,
        "MP Stoinis": 119.85,
        "Ishan Kishan": 125.1,
        "C Munro": 96.77,
        "P Sahu": 146.15,
        "KH Pandya": 153.35,
        "AD Nath": 71.43,
        "MJ Guptill": 132.17,
        "KJ Abbott": 162.5,
        "TM Head": 135.76,
        "M Ashwin": 0,
        "NS Naik": 69.7,
        "RR Pant": 148.03,
        "SW Billings": 130.64,
        "KC Cariappa": 83.33,
        "PSP Handscomb": 50,
        "Swapnil Singh": 60,
        "J Yadav": 50,
        "UT Khawaja": 120.95,
        "HM Amla": 138.04,
        "F Behardien": 107.69,
        "BB Sran": 100,
        "A Zampa": 62.5,
        "N Rana": 123.1,
        "S Kaushik": 0,
        "ER Dwivedi": 160,
        "CJ Jordan": 60,
        "TS Mills": 72.73,
        "A Choudhary": 125,
        "BA Stokes": 139.21,
        "JJ Roy": 143.9,
        "Vishnu Vinod": 73.08,
        "Basil Thampi": 93.33,
        "CR Woakes": 97.87,
        "RA Tripathi": 142.18,
        "DL Chahar": 233.33,
        "V Shankar": 131.17,
        "Rashid Khan": 122.22,
        "RD Chahar": 150,
        "LH Ferguson": 100,
        "C de Grandhomme": 136.96,
        "AF Milne": 58.33,
        "S Badree": 52,
        "Mohammad Nabi": 66.67,
        "AJ Tye": 176.67,
        "K Rabada": 80.88,
        "Kuldeep Yadav": 90.91,
        "Washington Sundar": 75,
        "DM Bravo": 120,
        "AR Bawne": 100,
        "SP Jackson": 122.58,
        "Ankit Soni": 77.78,
        "TA Boult": 62.5
    }
}